% $ biblatex auxiliary file $
% $ biblatex bbl format version 3.2 $
% Do not modify the above lines!
%
% This is an auxiliary file used by the 'biblatex' package.
% This file may safely be deleted. It will be recreated as
% required.
%
\begingroup
\makeatletter
\@ifundefined{ver@biblatex.sty}
  {\@latex@error
     {Missing 'biblatex' package}
     {The bibliography requires the 'biblatex' package.}
      \aftergroup\endinput}
  {}
\endgroup

\datalist[entry]{nyt/global//global/global}
  \entry{aggarwal_machine_2018}{book}{}
    \name{author}{1}{}{%
      {{hash=ACC}{%
         family={Aggarwal},
         familyi={A\bibinitperiod},
         given={Charu\bibnamedelima C.},
         giveni={C\bibinitperiod\bibinitdelim C\bibinitperiod},
      }}%
    }
    \list{language}{1}{%
      {en}%
    }
    \list{publisher}{1}{%
      {Springer International Publishing}%
    }
    \strng{namehash}{ACC1}
    \strng{fullhash}{ACC1}
    \field{labelnamesource}{author}
    \field{labeltitlesource}{title}
    \field{labelyear}{2018}
    \field{labeldatesource}{}
    \field{sortinit}{A}
    \field{sortinithash}{A}
    \verb{doi}
    \verb 10.1007/978-3-319-73531-3
    \endverb
    \field{isbn}{978-3-319-73530-6 978-3-319-73531-3}
    \field{title}{Machine {Learning} for {Text}}
    \verb{url}
    \verb http://link.springer.com/10.1007/978-3-319-73531-3
    \endverb
    \list{location}{1}{%
      {Cham}%
    }
    \verb{file}
    \verb Aggarwal - 2018 - Machine Learning for Text.pdf:/Users/elisabeth/Zote
    \verb ro/storage/PJGDXKPT/Aggarwal - 2018 - Machine Learning for Text.pdf:a
    \verb pplication/pdf
    \endverb
    \field{year}{2018}
    \field{urlday}{14}
    \field{urlmonth}{05}
    \field{urlyear}{2022}
  \endentry

  \entry{akbik2018coling}{inproceedings}{}
    \name{author}{3}{}{%
      {{hash=AA}{%
         family={Akbik},
         familyi={A\bibinitperiod},
         given={Alan},
         giveni={A\bibinitperiod},
      }}%
      {{hash=BD}{%
         family={Blythe},
         familyi={B\bibinitperiod},
         given={Duncan},
         giveni={D\bibinitperiod},
      }}%
      {{hash=VR}{%
         family={Vollgraf},
         familyi={V\bibinitperiod},
         given={Roland},
         giveni={R\bibinitperiod},
      }}%
    }
    \strng{namehash}{AABDVR1}
    \strng{fullhash}{AABDVR1}
    \field{labelnamesource}{author}
    \field{labeltitlesource}{title}
    \field{labelyear}{2018}
    \field{labeldatesource}{}
    \field{sortinit}{A}
    \field{sortinithash}{A}
    \field{booktitle}{{COLING} 2018, 27th International Conference on
  Computational Linguistics}
    \field{pages}{1638\bibrangedash 1649}
    \field{title}{Contextual String Embeddings for Sequence Labeling}
    \field{year}{2018}
  \endentry

  \entry{flair_ner}{misc}{}
    \name{author}{3}{}{%
      {{hash=AA}{%
         family={Akbik},
         familyi={A\bibinitperiod},
         given={Alan},
         giveni={A\bibinitperiod},
      }}%
      {{hash=BD}{%
         family={Blythe},
         familyi={B\bibinitperiod},
         given={Duncan},
         giveni={D\bibinitperiod},
      }}%
      {{hash=VR}{%
         family={Vollgraf},
         familyi={V\bibinitperiod},
         given={Roland},
         giveni={R\bibinitperiod},
      }}%
    }
    \strng{namehash}{AABDVR1}
    \strng{fullhash}{AABDVR1}
    \field{labelnamesource}{author}
    \field{labeltitlesource}{title}
    \field{labelyear}{2022}
    \field{extradate}{1}
    \field{labeldatesource}{}
    \field{sortinit}{A}
    \field{sortinithash}{A}
    \field{note}{(Accessed on 07/23/2022)}
    \field{title}{flair/ner-english · Hugging Face}
    \verb{url}
    \verb https://huggingface.co/flair/ner-english
    \endverb
    \field{year}{2022}
  \endentry

  \entry{flair_ner_german_standard_model}{misc}{}
    \name{author}{3}{}{%
      {{hash=AA}{%
         family={Akbik},
         familyi={A\bibinitperiod},
         given={Alan},
         giveni={A\bibinitperiod},
      }}%
      {{hash=BD}{%
         family={Blythe},
         familyi={B\bibinitperiod},
         given={Duncan},
         giveni={D\bibinitperiod},
      }}%
      {{hash=VR}{%
         family={Vollgraf},
         familyi={V\bibinitperiod},
         given={Roland},
         giveni={R\bibinitperiod},
      }}%
    }
    \strng{namehash}{AABDVR1}
    \strng{fullhash}{AABDVR1}
    \field{labelnamesource}{author}
    \field{labeltitlesource}{title}
    \field{labelyear}{2022}
    \field{extradate}{2}
    \field{labeldatesource}{}
    \field{sortinit}{A}
    \field{sortinithash}{A}
    \field{note}{(Accessed on 07/23/2022)}
    \field{title}{flair/ner-german · Hugging Face}
    \verb{url}
    \verb https://huggingface.co/flair/ner-german
    \endverb
    \field{year}{2022}
  \endentry

  \entry{akbik2019flair}{inproceedings}{}
    \name{author}{6}{}{%
      {{hash=AA}{%
         family={Akbik},
         familyi={A\bibinitperiod},
         given={Alan},
         giveni={A\bibinitperiod},
      }}%
      {{hash=BT}{%
         family={Bergmann},
         familyi={B\bibinitperiod},
         given={Tanja},
         giveni={T\bibinitperiod},
      }}%
      {{hash=BD}{%
         family={Blythe},
         familyi={B\bibinitperiod},
         given={Duncan},
         giveni={D\bibinitperiod},
      }}%
      {{hash=RK}{%
         family={Rasul},
         familyi={R\bibinitperiod},
         given={Kashif},
         giveni={K\bibinitperiod},
      }}%
      {{hash=SS}{%
         family={Schweter},
         familyi={S\bibinitperiod},
         given={Stefan},
         giveni={S\bibinitperiod},
      }}%
      {{hash=VR}{%
         family={Vollgraf},
         familyi={V\bibinitperiod},
         given={Roland},
         giveni={R\bibinitperiod},
      }}%
    }
    \strng{namehash}{AA+1}
    \strng{fullhash}{AABTBDRKSSVR1}
    \field{labelnamesource}{author}
    \field{labeltitlesource}{title}
    \field{labelyear}{2019}
    \field{labeldatesource}{}
    \field{sortinit}{A}
    \field{sortinithash}{A}
    \field{booktitle}{{NAACL} 2019, 2019 Annual Conference of the North
  American Chapter of the Association for Computational Linguistics
  (Demonstrations)}
    \field{pages}{54\bibrangedash 59}
    \field{title}{{FLAIR}: An easy-to-use framework for state-of-the-art {NLP}}
    \field{year}{2019}
  \endentry

  \entry{baldwin_shared_2015}{inproceedings}{}
    \name{author}{6}{}{%
      {{hash=BT}{%
         family={Baldwin},
         familyi={B\bibinitperiod},
         given={Timothy},
         giveni={T\bibinitperiod},
      }}%
      {{hash=dMMC}{%
         prefix={de},
         prefixi={d\bibinitperiod},
         family={Marneffe},
         familyi={M\bibinitperiod},
         given={Marie\bibnamedelima Catherine},
         giveni={M\bibinitperiod\bibinitdelim C\bibinitperiod},
      }}%
      {{hash=HB}{%
         family={Han},
         familyi={H\bibinitperiod},
         given={Bo},
         giveni={B\bibinitperiod},
      }}%
      {{hash=KYB}{%
         family={Kim},
         familyi={K\bibinitperiod},
         given={Young-Bum},
         giveni={Y\bibinithyphendelim B\bibinitperiod},
      }}%
      {{hash=RA}{%
         family={Ritter},
         familyi={R\bibinitperiod},
         given={Alan},
         giveni={A\bibinitperiod},
      }}%
      {{hash=XW}{%
         family={Xu},
         familyi={X\bibinitperiod},
         given={Wei},
         giveni={W\bibinitperiod},
      }}%
    }
    \list{publisher}{1}{%
      {Association for Computational Linguistics}%
    }
    \strng{namehash}{BT+1}
    \strng{fullhash}{BTMMCdHBKYBRAXW1}
    \field{labelnamesource}{author}
    \field{labeltitlesource}{shorttitle}
    \field{labelyear}{2015}
    \field{labeldatesource}{}
    \field{sortinit}{B}
    \field{sortinithash}{B}
    \field{booktitle}{Proceedings of the {Workshop} on {Noisy} {User}-generated
  {Text}}
    \verb{doi}
    \verb 10.18653/v1/W15-4319
    \endverb
    \field{pages}{126\bibrangedash 135}
    \field{shorttitle}{Shared {Tasks} of the 2015 {Workshop} on {Noisy}
  {User}-generated {Text}}
    \field{title}{Shared {Tasks} of the 2015 {Workshop} on {Noisy}
  {User}-generated {Text}: {Twitter} {Lexical} {Normalization} and {Named}
  {Entity} {Recognition}}
    \verb{url}
    \verb https://aclanthology.org/W15-4319
    \endverb
    \list{location}{1}{%
      {Beijing, China}%
    }
    \verb{file}
    \verb Full Text PDF:/Users/elisabeth/Zotero/storage/AWHKFUM9/Baldwin et al.
    \verb  - 2015 - Shared Tasks of the 2015 Workshop on Noisy User-ge.pdf:appl
    \verb ication/pdf
    \endverb
    \field{month}{07}
    \field{year}{2015}
    \field{urlday}{16}
    \field{urlmonth}{05}
    \field{urlyear}{2022}
  \endentry

  \entry{xlm_roberta_twitter}{misc}{}
    \name{author}{3}{}{%
      {{hash=BF}{%
         family={Barbieri},
         familyi={B\bibinitperiod},
         given={Francesco},
         giveni={F\bibinitperiod},
      }}%
      {{hash=ALE}{%
         family={Anke},
         familyi={A\bibinitperiod},
         given={Luis\bibnamedelima Espinosa},
         giveni={L\bibinitperiod\bibinitdelim E\bibinitperiod},
      }}%
      {{hash=CCJ}{%
         family={Camacho-Collados},
         familyi={C\bibinithyphendelim C\bibinitperiod},
         given={Jose},
         giveni={J\bibinitperiod},
      }}%
    }
    \list{publisher}{1}{%
      {arXiv}%
    }
    \keyw{Computation and Language (cs.CL), FOS: Computer and information
  sciences, FOS: Computer and information sciences}
    \strng{namehash}{BFALECCJ1}
    \strng{fullhash}{BFALECCJ1}
    \field{labelnamesource}{author}
    \field{labeltitlesource}{title}
    \field{labelyear}{2021}
    \field{labeldatesource}{}
    \field{sortinit}{B}
    \field{sortinithash}{B}
    \verb{doi}
    \verb 10.48550/ARXIV.2104.12250
    \endverb
    \field{title}{XLM-T: Multilingual Language Models in Twitter for Sentiment
  Analysis and Beyond}
    \verb{url}
    \verb https://arxiv.org/abs/2104.12250
    \endverb
    \field{year}{2021}
  \endentry

  \entry{benikova-etal-2014-nosta}{inproceedings}{}
    \name{author}{3}{}{%
      {{hash=BD}{%
         family={Benikova},
         familyi={B\bibinitperiod},
         given={Darina},
         giveni={D\bibinitperiod},
      }}%
      {{hash=BC}{%
         family={Biemann},
         familyi={B\bibinitperiod},
         given={Chris},
         giveni={C\bibinitperiod},
      }}%
      {{hash=RM}{%
         family={Reznicek},
         familyi={R\bibinitperiod},
         given={Marc},
         giveni={M\bibinitperiod},
      }}%
    }
    \list{publisher}{1}{%
      {European Language Resources Association (ELRA)}%
    }
    \strng{namehash}{BDBCRM1}
    \strng{fullhash}{BDBCRM1}
    \field{labelnamesource}{author}
    \field{labeltitlesource}{title}
    \field{labelyear}{2014}
    \field{labeldatesource}{}
    \field{sortinit}{B}
    \field{sortinithash}{B}
    \field{booktitle}{Proceedings of the Ninth International Conference on
  Language Resources and Evaluation ({LREC}'14)}
    \field{pages}{2524\bibrangedash 2531}
    \field{title}{{N}o{S}ta-{D} Named Entity Annotation for {G}erman:
  Guidelines and Dataset}
    \verb{url}
    \verb http://www.lrec-conf.org/proceedings/lrec2014/pdf/276_Paper.pdf
    \endverb
    \list{location}{1}{%
      {Reykjavik, Iceland}%
    }
    \field{month}{05}
    \field{year}{2014}
  \endentry

  \entry{benikova2014germeval}{article}{}
    \name{author}{4}{}{%
      {{hash=BD}{%
         family={Benikova},
         familyi={B\bibinitperiod},
         given={Darina},
         giveni={D\bibinitperiod},
      }}%
      {{hash=BC}{%
         family={Biemann},
         familyi={B\bibinitperiod},
         given={Chris},
         giveni={C\bibinitperiod},
      }}%
      {{hash=KM}{%
         family={Kisselew},
         familyi={K\bibinitperiod},
         given={Max},
         giveni={M\bibinitperiod},
      }}%
      {{hash=PS}{%
         family={Pad{\'o}},
         familyi={P\bibinitperiod},
         given={Sebastian},
         giveni={S\bibinitperiod},
      }}%
    }
    \strng{namehash}{BD+1}
    \strng{fullhash}{BDBCKMPS1}
    \field{labelnamesource}{author}
    \field{labeltitlesource}{title}
    \field{labelyear}{2014}
    \field{labeldatesource}{}
    \field{sortinit}{B}
    \field{sortinithash}{B}
    \field{pages}{104\bibrangedash 112}
    \field{title}{Germeval 2014 named entity recognition: Companion paper}
    \field{journaltitle}{Proceedings of the KONVENS GermEval Shared Task on
  Named Entity Recognition, Hildesheim, Germany}
    \field{year}{2014}
  \endentry

  \entry{bhoi_2017}{article}{}
    \name{author}{2}{}{%
      {{hash=BA}{%
         family={Bhoi},
         familyi={B\bibinitperiod},
         given={Ashutosh},
         giveni={A\bibinitperiod},
      }}%
      {{hash=BRC}{%
         family={Balabantaray},
         familyi={B\bibinitperiod},
         given={Rakesh\bibnamedelima Chandra},
         giveni={R\bibinitperiod\bibinitdelim C\bibinitperiod},
      }}%
    }
    \list{language}{1}{%
      {en}%
    }
    \strng{namehash}{BABRC1}
    \strng{fullhash}{BABRC1}
    \field{labelnamesource}{author}
    \field{labeltitlesource}{title}
    \field{labelyear}{2017}
    \field{labeldatesource}{}
    \field{sortinit}{B}
    \field{sortinithash}{B}
    \field{pages}{7}
    \field{title}{Named {Entity} {Recognition} from {Social} {Media} {Text}:
  {A} {Comparative} {Study}}
    \field{year}{2017}
  \endentry

  \entry{bmr_2020}{misc}{}
    \name{author}{1}{}{%
      {{hash=B}{%
         family={{Bundesverband mobile Beratung}},
         familyi={B\bibinitperiod},
      }}%
    }
    \strng{namehash}{B1}
    \strng{fullhash}{B1}
    \field{labelnamesource}{author}
    \field{labeltitlesource}{title}
    \field{labelyear}{2020}
    \field{labeldatesource}{}
    \field{sortinit}{B}
    \field{sortinithash}{B}
    \field{note}{(Accessed on 08/15/2022)}
    \field{title}{2020-05-29\_Einschätzung Corona}
    \verb{url}
    \verb https://www.bundesverband-mobile-beratung.de/wp-content/uploads/2020/
    \verb 05/2020-05-29_Einsch%C3%A4tzung-Corona.pdf
    \endverb
    \field{month}{05}
    \field{year}{2020}
  \endentry

  \entry{cemas_2022}{misc}{}
    \name{author}{1}{}{%
      {{hash=C}{%
         family={{CeMAS - Center für Monitoring, Analyse und Strategie}},
         familyi={C\bibinitperiod},
      }}%
    }
    \strng{namehash}{C1}
    \strng{fullhash}{C1}
    \field{labelnamesource}{author}
    \field{labeltitlesource}{title}
    \field{labelyear}{2022}
    \field{labeldatesource}{}
    \field{sortinit}{C}
    \field{sortinithash}{C}
    \field{note}{(Accessed on 08/15/2022)}
    \field{title}{Zwischen ``Spaziergängen'' und Aufmärschen: Das
  Protestpotenzial während der Covid-19-Pandemie}
    \verb{url}
    \verb https://cemas.io/publikationen/zwischen-spaziergaengen-und-aufmaersch
    \verb en-das-protestpotential-waehrend-der-covid-19-pandemie/2022-05-09_Pol
    \verb icyBriefProtestpotential.pdf
    \endverb
    \field{month}{05}
    \field{year}{2022}
  \endentry

  \entry{bert_german_2020}{misc}{}
    \name{author}{3}{}{%
      {{hash=CB}{%
         family={Chan},
         familyi={C\bibinitperiod},
         given={Branden},
         giveni={B\bibinitperiod},
      }}%
      {{hash=SS}{%
         family={Schweter},
         familyi={S\bibinitperiod},
         given={Stefan},
         giveni={S\bibinitperiod},
      }}%
      {{hash=MT}{%
         family={Möller},
         familyi={M\bibinitperiod},
         given={Timo},
         giveni={T\bibinitperiod},
      }}%
    }
    \strng{namehash}{CBSSMT1}
    \strng{fullhash}{CBSSMT1}
    \field{labelnamesource}{author}
    \field{labeltitlesource}{title}
    \field{labelyear}{2020}
    \field{labeldatesource}{}
    \field{sortinit}{C}
    \field{sortinithash}{C}
    \verb{doi}
    \verb 10.48550/ARXIV.2010.10906
    \endverb
    \field{title}{German's Next Language Model}
    \verb{url}
    \verb https://arxiv.org/abs/2010.10906
    \endverb
    \field{year}{2020}
  \endentry

  \entry{muc7_ner}{misc}{}
    \name{author}{1}{}{%
      {{hash=CN}{%
         family={Chinchor},
         familyi={C\bibinitperiod},
         given={Nancy},
         giveni={N\bibinitperiod},
      }}%
    }
    \strng{namehash}{CN1}
    \strng{fullhash}{CN1}
    \field{labelnamesource}{author}
    \field{labeltitlesource}{title}
    \field{labelyear}{1997}
    \field{labeldatesource}{}
    \field{sortinit}{C}
    \field{sortinithash}{C}
    \field{note}{(Accessed on 07/23/2022)}
    \field{title}{MUC-7 Named Entity Task Definition}
    \verb{url}
    \verb https://www-nlpir.nist.gov/related_projects/muc/proceedings/ne_task.h
    \verb tml
    \endverb
    \field{month}{09}
    \field{year}{1997}
  \endentry

  \entry{xlm_roberta}{article}{}
    \name{author}{10}{}{%
      {{hash=CA}{%
         family={Conneau},
         familyi={C\bibinitperiod},
         given={Alexis},
         giveni={A\bibinitperiod},
      }}%
      {{hash=KK}{%
         family={Khandelwal},
         familyi={K\bibinitperiod},
         given={Kartikay},
         giveni={K\bibinitperiod},
      }}%
      {{hash=GN}{%
         family={Goyal},
         familyi={G\bibinitperiod},
         given={Naman},
         giveni={N\bibinitperiod},
      }}%
      {{hash=CV}{%
         family={Chaudhary},
         familyi={C\bibinitperiod},
         given={Vishrav},
         giveni={V\bibinitperiod},
      }}%
      {{hash=WG}{%
         family={Wenzek},
         familyi={W\bibinitperiod},
         given={Guillaume},
         giveni={G\bibinitperiod},
      }}%
      {{hash=GF}{%
         family={Guzm{\'{a}}n},
         familyi={G\bibinitperiod},
         given={Francisco},
         giveni={F\bibinitperiod},
      }}%
      {{hash=GE}{%
         family={Grave},
         familyi={G\bibinitperiod},
         given={Edouard},
         giveni={E\bibinitperiod},
      }}%
      {{hash=OM}{%
         family={Ott},
         familyi={O\bibinitperiod},
         given={Myle},
         giveni={M\bibinitperiod},
      }}%
      {{hash=ZL}{%
         family={Zettlemoyer},
         familyi={Z\bibinitperiod},
         given={Luke},
         giveni={L\bibinitperiod},
      }}%
      {{hash=SV}{%
         family={Stoyanov},
         familyi={S\bibinitperiod},
         given={Veselin},
         giveni={V\bibinitperiod},
      }}%
    }
    \strng{namehash}{CA+1}
    \strng{fullhash}{CAKKGNCVWGGFGEOMZLSV1}
    \field{labelnamesource}{author}
    \field{labeltitlesource}{title}
    \field{labelyear}{2019}
    \field{labeldatesource}{}
    \field{sortinit}{C}
    \field{sortinithash}{C}
    \verb{eprint}
    \verb 1911.02116
    \endverb
    \field{title}{Unsupervised Cross-lingual Representation Learning at Scale}
    \verb{url}
    \verb http://arxiv.org/abs/1911.02116
    \endverb
    \field{volume}{abs/1911.02116}
    \field{journaltitle}{CoRR}
    \field{eprinttype}{arXiv}
    \field{year}{2019}
  \endentry

  \entry{derczynski-etal-2016-broad}{inproceedings}{}
    \name{author}{3}{}{%
      {{hash=DL}{%
         family={Derczynski},
         familyi={D\bibinitperiod},
         given={Leon},
         giveni={L\bibinitperiod},
      }}%
      {{hash=BK}{%
         family={Bontcheva},
         familyi={B\bibinitperiod},
         given={Kalina},
         giveni={K\bibinitperiod},
      }}%
      {{hash=RI}{%
         family={Roberts},
         familyi={R\bibinitperiod},
         given={Ian},
         giveni={I\bibinitperiod},
      }}%
    }
    \list{publisher}{1}{%
      {The COLING 2016 Organizing Committee}%
    }
    \strng{namehash}{DLBKRI1}
    \strng{fullhash}{DLBKRI1}
    \field{labelnamesource}{author}
    \field{labeltitlesource}{title}
    \field{labelyear}{2016}
    \field{labeldatesource}{}
    \field{sortinit}{D}
    \field{sortinithash}{D}
    \field{abstract}{%
    One of the main obstacles, hampering method development and comparative
  evaluation of named entity recognition in social media, is the lack of a
  sizeable, diverse, high quality annotated corpus, analogous to the
  CoNLL{'}2003 news dataset. For instance, the biggest Ritter tweet corpus is
  only 45,000 tokens {--} a mere 15{\%} the size of CoNLL{'}2003. Another major
  shortcoming is the lack of temporal, geographic, and author diversity. This
  paper introduces the Broad Twitter Corpus (BTC), which is not only
  significantly bigger, but sampled across different regions, temporal periods,
  and types of Twitter users. The gold-standard named entity annotations are
  made by a combination of NLP experts and crowd workers, which enables us to
  harness crowd recall while maintaining high quality. We also measure the
  entity drift observed in our dataset (i.e. how entity representation varies
  over time), and compare to newswire. The corpus is released openly, including
  source text and intermediate annotations.%
    }
    \field{booktitle}{Proceedings of {COLING} 2016, the 26th International
  Conference on Computational Linguistics: Technical Papers}
    \field{pages}{1169\bibrangedash 1179}
    \field{title}{Broad {T}witter Corpus: A Diverse Named Entity Recognition
  Resource}
    \verb{url}
    \verb https://aclanthology.org/C16-1111
    \endverb
    \list{location}{1}{%
      {Osaka, Japan}%
    }
    \field{month}{12}
    \field{year}{2016}
  \endentry

  \entry{derczynski_analysis_2015}{article}{}
    \name{author}{8}{}{%
      {{hash=DL}{%
         family={Derczynski},
         familyi={D\bibinitperiod},
         given={Leon},
         giveni={L\bibinitperiod},
      }}%
      {{hash=MD}{%
         family={Maynard},
         familyi={M\bibinitperiod},
         given={Diana},
         giveni={D\bibinitperiod},
      }}%
      {{hash=RG}{%
         family={Rizzo},
         familyi={R\bibinitperiod},
         given={Giuseppe},
         giveni={G\bibinitperiod},
      }}%
      {{hash=vEM}{%
         prefix={van},
         prefixi={v\bibinitperiod},
         family={Erp},
         familyi={E\bibinitperiod},
         given={Marieke},
         giveni={M\bibinitperiod},
      }}%
      {{hash=GG}{%
         family={Gorrell},
         familyi={G\bibinitperiod},
         given={Genevieve},
         giveni={G\bibinitperiod},
      }}%
      {{hash=TR}{%
         family={Troncy},
         familyi={T\bibinitperiod},
         given={Raphaël},
         giveni={R\bibinitperiod},
      }}%
      {{hash=PJ}{%
         family={Petrak},
         familyi={P\bibinitperiod},
         given={Johann},
         giveni={J\bibinitperiod},
      }}%
      {{hash=BK}{%
         family={Bontcheva},
         familyi={B\bibinitperiod},
         given={Kalina},
         giveni={K\bibinitperiod},
      }}%
    }
    \list{language}{1}{%
      {en}%
    }
    \strng{namehash}{DL+1}
    \strng{fullhash}{DLMDRGEMvGGTRPJBK1}
    \field{labelnamesource}{author}
    \field{labeltitlesource}{title}
    \field{labelyear}{2015}
    \field{labeldatesource}{}
    \field{sortinit}{D}
    \field{sortinithash}{D}
    \field{abstract}{%
    Applying natural language processing for mining and intelligent information
  access to tweets (a form of microblog) is a challenging, emerging research
  area. Unlike carefully authored news text and other longer content, tweets
  pose a number of new challenges, due to their short, noisy,
  context-dependent, and dynamic nature. Information extraction from tweets is
  typically performed in a pipeline, comprising consecutive stages of language
  identiﬁcation, tokenisation, part-of-speech tagging, named entity
  recognition and entity disambiguation (e.g. with respect to DBpedia). In this
  work, we describe a new Twitter entity disambiguation dataset, and conduct an
  empirical analysis of named entity recognition and disambiguation,
  investigating how robust a number of state-of-the-art systems are on such
  noisy texts, what the main sources of error are, and which problems should be
  further investigated to improve the state of the art.%
    }
    \verb{doi}
    \verb 10.1016/j.ipm.2014.10.006
    \endverb
    \field{issn}{03064573}
    \field{number}{2}
    \field{pages}{32\bibrangedash 49}
    \field{title}{Analysis of named entity recognition and linking for tweets}
    \verb{url}
    \verb https://linkinghub.elsevier.com/retrieve/pii/S0306457314001034
    \endverb
    \field{volume}{51}
    \verb{file}
    \verb Derczynski et al. - 2015 - Analysis of named entity recognition and l
    \verb inking f.pdf:/Users/elisabeth/Zotero/storage/3TYW52AI/Derczynski et a
    \verb l. - 2015 - Analysis of named entity recognition and linking f.pdf:ap
    \verb plication/pdf
    \endverb
    \field{journaltitle}{Information Processing \& Management}
    \field{month}{03}
    \field{year}{2015}
    \field{urlday}{27}
    \field{urlmonth}{06}
    \field{urlyear}{2022}
  \endentry

  \entry{derczynski_results_2017}{inproceedings}{}
    \name{author}{4}{}{%
      {{hash=DL}{%
         family={Derczynski},
         familyi={D\bibinitperiod},
         given={Leon},
         giveni={L\bibinitperiod},
      }}%
      {{hash=NE}{%
         family={Nichols},
         familyi={N\bibinitperiod},
         given={Eric},
         giveni={E\bibinitperiod},
      }}%
      {{hash=vEM}{%
         prefix={van},
         prefixi={v\bibinitperiod},
         family={Erp},
         familyi={E\bibinitperiod},
         given={Marieke},
         giveni={M\bibinitperiod},
      }}%
      {{hash=LN}{%
         family={Limsopatham},
         familyi={L\bibinitperiod},
         given={Nut},
         giveni={N\bibinitperiod},
      }}%
    }
    \list{publisher}{1}{%
      {Association for Computational Linguistics}%
    }
    \strng{namehash}{DL+1}
    \strng{fullhash}{DLNEEMvLN1}
    \field{labelnamesource}{author}
    \field{labeltitlesource}{title}
    \field{labelyear}{2017}
    \field{labeldatesource}{}
    \field{sortinit}{D}
    \field{sortinithash}{D}
    \field{abstract}{%
    This shared task focuses on identifying unusual, previously-unseen entities
  in the context of emerging discussions. Named entities form the basis of many
  modern approaches to other tasks (like event clustering and summarization),
  but recall on them is a real problem in noisy text - even among annotators.
  This drop tends to be due to novel entities and surface forms. Take for
  example the tweet “so.. kktny in 30 mins⁈” – even human experts find
  the entity `kktny' hard to detect and resolve. The goal of this task is to
  provide a definition of emerging and of rare entities, and based on that,
  also datasets for detecting these entities. The task as described in this
  paper evaluated the ability of participating entries to detect and classify
  novel and emerging named entities in noisy text.%
    }
    \field{booktitle}{Proceedings of the 3rd {Workshop} on {Noisy}
  {User}-generated {Text}}
    \verb{doi}
    \verb 10.18653/v1/W17-4418
    \endverb
    \field{pages}{140\bibrangedash 147}
    \field{title}{Results of the {WNUT2017} {Shared} {Task} on {Novel} and
  {Emerging} {Entity} {Recognition}}
    \verb{url}
    \verb https://aclanthology.org/W17-4418
    \endverb
    \list{location}{1}{%
      {Copenhagen, Denmark}%
    }
    \verb{file}
    \verb Full Text PDF:/Users/elisabeth/Zotero/storage/I5KYSIG4/Derczynski et
    \verb al. - 2017 - Results of the WNUT2017 Shared Task on Novel and E.pdf:a
    \verb pplication/pdf
    \endverb
    \field{month}{09}
    \field{year}{2017}
    \field{urlday}{21}
    \field{urlmonth}{07}
    \field{urlyear}{2022}
  \endentry

  \entry{devlin_2018}{misc}{}
    \name{author}{4}{}{%
      {{hash=DJ}{%
         family={Devlin},
         familyi={D\bibinitperiod},
         given={Jacob},
         giveni={J\bibinitperiod},
      }}%
      {{hash=CMW}{%
         family={Chang},
         familyi={C\bibinitperiod},
         given={Ming-Wei},
         giveni={M\bibinithyphendelim W\bibinitperiod},
      }}%
      {{hash=LK}{%
         family={Lee},
         familyi={L\bibinitperiod},
         given={Kenton},
         giveni={K\bibinitperiod},
      }}%
      {{hash=TK}{%
         family={Toutanova},
         familyi={T\bibinitperiod},
         given={Kristina},
         giveni={K\bibinitperiod},
      }}%
    }
    \list{publisher}{1}{%
      {arXiv}%
    }
    \strng{namehash}{DJ+1}
    \strng{fullhash}{DJCMWLKTK1}
    \field{labelnamesource}{author}
    \field{labeltitlesource}{title}
    \field{labelyear}{2018}
    \field{labeldatesource}{}
    \field{sortinit}{D}
    \field{sortinithash}{D}
    \verb{doi}
    \verb 10.48550/ARXIV.1810.04805
    \endverb
    \field{title}{BERT: Pre-training of Deep Bidirectional Transformers for
  Language Understanding}
    \verb{url}
    \verb https://arxiv.org/abs/1810.04805
    \endverb
    \field{year}{2018}
  \endentry

  \entry{spacy_entity_recognizer}{misc}{}
    \name{author}{1}{}{%
      {{hash=E}{%
         family={ExplosionAI},
         familyi={E\bibinitperiod},
      }}%
    }
    \strng{namehash}{E1}
    \strng{fullhash}{E1}
    \field{labelnamesource}{author}
    \field{labeltitlesource}{title}
    \field{labelyear}{2022}
    \field{extradate}{1}
    \field{labeldatesource}{}
    \field{sortinit}{E}
    \field{sortinithash}{E}
    \field{note}{(Accessed on 07/23/2022)}
    \field{title}{EntityRecognizer · spaCy API Documentation}
    \verb{url}
    \verb https://spacy.io/api/entityrecognizer
    \endverb
    \field{year}{2022}
  \endentry

  \entry{spacy_facts}{misc}{}
    \name{author}{1}{}{%
      {{hash=E}{%
         family={ExplosionAI},
         familyi={E\bibinitperiod},
      }}%
    }
    \list{language}{1}{%
      {en}%
    }
    \strng{namehash}{E1}
    \strng{fullhash}{E1}
    \field{labelnamesource}{author}
    \field{labeltitlesource}{title}
    \field{labelyear}{2022}
    \field{extradate}{2}
    \field{labeldatesource}{}
    \field{sortinit}{E}
    \field{sortinithash}{E}
    \field{abstract}{%
    The hard numbers for spaCy and how it compares to other tools%
    }
    \field{title}{Facts \& {Figures} · {spaCy} {Usage} {Documentation}}
    \verb{url}
    \verb https://spacy.io/usage/facts-figures
    \endverb
    \verb{file}
    \verb Snapshot:/Users/elisabeth/Zotero/storage/6BWKY7LN/facts-figures.html:
    \verb text/html
    \endverb
    \field{journaltitle}{Facts \& Figures}
    \field{year}{2022}
    \field{urlday}{23}
    \field{urlmonth}{07}
    \field{urlyear}{2022}
  \endentry

  \entry{spacy_german_md}{misc}{}
    \name{author}{1}{}{%
      {{hash=E}{%
         family={ExplosionAI},
         familyi={E\bibinitperiod},
      }}%
    }
    \strng{namehash}{E1}
    \strng{fullhash}{E1}
    \field{labelnamesource}{author}
    \field{labeltitlesource}{title}
    \field{labelyear}{2022}
    \field{extradate}{3}
    \field{labeldatesource}{}
    \field{sortinit}{E}
    \field{sortinithash}{E}
    \field{note}{(Accessed on 07/23/2022)}
    \field{title}{German · spaCy Models Documentation}
    \verb{url}
    \verb https://spacy.io/models/de#de_core_news_md
    \endverb
    \field{year}{2022}
  \endentry

  \entry{spacy_transition_based_parser}{misc}{}
    \name{author}{1}{}{%
      {{hash=E}{%
         family={ExplosionAI},
         familyi={E\bibinitperiod},
      }}%
    }
    \strng{namehash}{E1}
    \strng{fullhash}{E1}
    \field{labelnamesource}{author}
    \field{labeltitlesource}{title}
    \field{labelyear}{2022}
    \field{extradate}{4}
    \field{labeldatesource}{}
    \field{sortinit}{E}
    \field{sortinithash}{E}
    \field{note}{(Accessed on 07/23/2022)}
    \field{title}{TransitionBasedParser · spaCy API Documentation}
    \verb{url}
    \verb https://spacy.io/api/architectures#TransitionBasedParser
    \endverb
    \field{year}{2022}
  \endentry

  \entry{fgz_2020}{report}{}
    \name{author}{1}{}{%
      {{hash=F}{%
         family={{Forschungsinstitut Gesellschaftlicher Zusammenhalt}},
         familyi={F\bibinitperiod},
      }}%
    }
    \strng{namehash}{F1}
    \strng{fullhash}{F1}
    \field{labelnamesource}{author}
    \field{labeltitlesource}{title}
    \field{labelyear}{2020}
    \field{labeldatesource}{}
    \field{sortinit}{F}
    \field{sortinithash}{F}
    \field{title}{Factsheet: {Proteste} in der {Corona}-{Pandemie}: {Gefahr}
  für unsere {Demokratie}?}
    \verb{url}
    \verb https://www.idz-jena.de/fileadmin/user_upload/Factsheets/Factsheet_Pr
    \verb oteste_Corona_Gefahr_Demokratie_Institut_f%C3%BCr_Demokratie_und_Zivi
    \verb lgesellschaft_Forschungsinstitut_Gesellschaftlicher_Zusammenhalt.pdf
    \endverb
    \list{institution}{1}{%
      {FGZ (Forschungsinstitut Gesellschaftlicher Zusammenhalt), Standort
  Jena}%
    }
    \field{type}{techreport}
    \field{year}{2020}
  \endentry

  \entry{fns_study}{misc}{}
    \name{author}{1}{}{%
      {{hash=F}{%
         family={{Friedrich Naumann Stiftung}},
         familyi={F\bibinitperiod},
      }}%
    }
    \strng{namehash}{F2}
    \strng{fullhash}{F2}
    \field{labelnamesource}{author}
    \field{labeltitlesource}{title}
    \field{labelyear}{2020}
    \field{labeldatesource}{}
    \field{sortinit}{F}
    \field{sortinithash}{F}
    \field{note}{(Accessed on 08/15/2022)}
    \field{title}{\#Freedomfightsfake: Globale Studie: Desinformationen
  durchdringen Gesellschaften weltweit}
    \verb{url}
    \verb https://www.freiheit.org/de/globale-studie-desinformationen-durchdrin
    \verb gen-gesellschaften-weltweit
    \endverb
    \field{month}{08}
    \field{year}{2020}
  \endentry

  \entry{grishman_message_1996}{inproceedings}{}
    \name{author}{2}{}{%
      {{hash=GR}{%
         family={Grishman},
         familyi={G\bibinitperiod},
         given={Ralph},
         giveni={R\bibinitperiod},
      }}%
      {{hash=SB}{%
         family={Sundheim},
         familyi={S\bibinitperiod},
         given={Beth},
         giveni={B\bibinitperiod},
      }}%
    }
    \strng{namehash}{GRSB1}
    \strng{fullhash}{GRSB1}
    \field{labelnamesource}{author}
    \field{labeltitlesource}{shorttitle}
    \field{labelyear}{1996}
    \field{labeldatesource}{}
    \field{sortinit}{G}
    \field{sortinithash}{G}
    \field{booktitle}{{COLING} 1996 {Volume} 1: {The} 16th {International}
  {Conference} on {Computational} {Linguistics}}
    \field{shorttitle}{Message {Understanding} {Conference}- 6}
    \field{title}{Message {Understanding} {Conference}- 6: {A} {Brief}
  {History}}
    \verb{url}
    \verb https://aclanthology.org/C96-1079
    \endverb
    \verb{file}
    \verb Full Text PDF:/Users/elisabeth/Zotero/storage/LNHX7ICV/Grishman and S
    \verb undheim - 1996 - Message Understanding Conference- 6 A Brief Histo.pd
    \verb f:application/pdf
    \endverb
    \field{year}{1996}
    \field{urlday}{27}
    \field{urlmonth}{06}
    \field{urlyear}{2022}
  \endentry

  \entry{huggingface_attention_mask}{misc}{}
    \name{author}{1}{}{%
      {{hash=H}{%
         family={HuggingFace},
         familyi={H\bibinitperiod},
      }}%
    }
    \strng{namehash}{H1}
    \strng{fullhash}{H1}
    \field{labelnamesource}{author}
    \field{labeltitlesource}{title}
    \field{labelyear}{2022}
    \field{extradate}{1}
    \field{labeldatesource}{}
    \field{sortinit}{H}
    \field{sortinithash}{H}
    \field{note}{(Accessed on 08/05/2022)}
    \field{title}{Glossary: Attention mask}
    \verb{url}
    \verb https://huggingface.co/docs/transformers/glossary#attention-mask
    \endverb
    \field{year}{2022}
  \endentry

  \entry{huggingface_token_type_ids}{misc}{}
    \name{author}{1}{}{%
      {{hash=H}{%
         family={HuggingFace},
         familyi={H\bibinitperiod},
      }}%
    }
    \strng{namehash}{H1}
    \strng{fullhash}{H1}
    \field{labelnamesource}{author}
    \field{labeltitlesource}{title}
    \field{labelyear}{2022}
    \field{extradate}{2}
    \field{labeldatesource}{}
    \field{sortinit}{H}
    \field{sortinithash}{H}
    \field{note}{(Accessed on 08/05/2022)}
    \field{title}{Glossary: Token Type IDs}
    \verb{url}
    \verb https://huggingface.co/docs/transformers/glossary#token-type-ids
    \endverb
    \field{year}{2022}
  \endentry

  \entry{huggingface_tokenizers}{misc}{}
    \name{author}{1}{}{%
      {{hash=H}{%
         family={HuggingFace},
         familyi={H\bibinitperiod},
      }}%
    }
    \strng{namehash}{H1}
    \strng{fullhash}{H1}
    \field{labelnamesource}{author}
    \field{labeltitlesource}{title}
    \field{labelyear}{2022}
    \field{extradate}{3}
    \field{labeldatesource}{}
    \field{sortinit}{H}
    \field{sortinithash}{H}
    \field{note}{(Accessed on 08/04/2022)}
    \field{title}{Summary of the tokenizers}
    \verb{url}
    \verb https://huggingface.co/docs/transformers/tokenizer_summary
    \endverb
    \field{year}{2022}
  \endentry

  \entry{jurafsky_2021}{book}{}
    \name{author}{2}{}{%
      {{hash=JD}{%
         family={Jurafsky},
         familyi={J\bibinitperiod},
         given={Daniel},
         giveni={D\bibinitperiod},
      }}%
      {{hash=MJH}{%
         family={Martin},
         familyi={M\bibinitperiod},
         given={James\bibnamedelima H.},
         giveni={J\bibinitperiod\bibinitdelim H\bibinitperiod},
      }}%
    }
    \strng{namehash}{JDMJH1}
    \strng{fullhash}{JDMJH1}
    \field{labelnamesource}{author}
    \field{labeltitlesource}{title}
    \field{labelyear}{2021}
    \field{labeldatesource}{}
    \field{sortinit}{J}
    \field{sortinithash}{J}
    \field{title}{Speech and Language Processing. An Introduction to Natural
  Language Processing, Computational Linguistics, and Speech Recognition}
    \verb{url}
    \verb https://web.stanford.edu/~jurafsky/slp3/ed3book_jan122022.pdf
    \endverb
    \field{year}{2021}
  \endentry

  \entry{klaus_zdf}{misc}{}
    \name{author}{1}{}{%
      {{hash=KJ}{%
         family={Klaus},
         familyi={K\bibinitperiod},
         given={Julia},
         giveni={J\bibinitperiod},
      }}%
    }
    \strng{namehash}{KJ1}
    \strng{fullhash}{KJ1}
    \field{labelnamesource}{author}
    \field{labeltitlesource}{title}
    \field{labelyear}{2021}
    \field{labeldatesource}{}
    \field{sortinit}{K}
    \field{sortinithash}{K}
    \field{note}{(Accessed on 08/15/2022)}
    \field{title}{``Freie Sachsen'': Extremisten mobilisieren zu Corona-Protest
  - ZDFheute}
    \verb{url}
    \verb https://www.zdf.de/nachrichten/politik/corona-demos-spaziergaenge-fre
    \verb ie-sachsen-102.html
    \endverb
    \field{month}{12}
    \field{year}{2021}
  \endentry

  \entry{ldc_2005}{misc}{}
    \name{author}{1}{}{%
      {{hash=L}{%
         family={LDC},
         familyi={L\bibinitperiod},
      }}%
    }
    \strng{namehash}{L1}
    \strng{fullhash}{L1}
    \field{labelnamesource}{author}
    \field{labeltitlesource}{title}
    \field{labelyear}{2005}
    \field{labeldatesource}{}
    \field{sortinit}{L}
    \field{sortinithash}{L}
    \field{note}{(Accessed on 07/23/2022)}
    \field{title}{ACE (Automatic Content Extraction) English Annotation
  Guidelines for Entities version 6.6}
    \verb{url}
    \verb https://www.ldc.upenn.edu/sites/www.ldc.upenn.edu/files/english-entit
    \verb ies-guidelines-v6.6.pdf
    \endverb
    \field{year}{2005}
  \endentry

  \entry{magueresse_low-resource_2020}{misc}{}
    \name{author}{3}{}{%
      {{hash=MA}{%
         family={Magueresse},
         familyi={M\bibinitperiod},
         given={Alexandre},
         giveni={A\bibinitperiod},
      }}%
      {{hash=CV}{%
         family={Carles},
         familyi={C\bibinitperiod},
         given={Vincent},
         giveni={V\bibinitperiod},
      }}%
      {{hash=HE}{%
         family={Heetderks},
         familyi={H\bibinitperiod},
         given={Evan},
         giveni={E\bibinitperiod},
      }}%
    }
    \list{publisher}{1}{%
      {arXiv}%
    }
    \keyw{Computer Science - Computation and Language, I.2.7}
    \strng{namehash}{MACVHE1}
    \strng{fullhash}{MACVHE1}
    \field{labelnamesource}{author}
    \field{labeltitlesource}{shorttitle}
    \field{labelyear}{2020}
    \field{labeldatesource}{}
    \field{sortinit}{M}
    \field{sortinithash}{M}
    \field{abstract}{%
    A current problem in NLP is massaging and processing low-resource languages
  which lack useful training attributes such as supervised data, number of
  native speakers or experts, etc. This review paper concisely summarizes
  previous groundbreaking achievements made towards resolving this problem, and
  analyzes potential improvements in the context of the overall future research
  direction.%
    }
    \field{note}{Number: arXiv:2006.07264 arXiv:2006.07264 [cs]}
    \field{shorttitle}{Low-resource {Languages}}
    \field{title}{Low-resource {Languages}: {A} {Review} of {Past} {Work} and
  {Future} {Challenges}}
    \verb{url}
    \verb http://arxiv.org/abs/2006.07264
    \endverb
    \verb{file}
    \verb arXiv Fulltext PDF:/Users/elisabeth/Zotero/storage/L7ZCSHJJ/Magueress
    \verb e et al. - 2020 - Low-resource Languages A Review of Past Work and .p
    \verb df:application/pdf;arXiv.org Snapshot:/Users/elisabeth/Zotero/storage
    \verb /W4KI7JXF/2006.html:text/html
    \endverb
    \field{month}{06}
    \field{year}{2020}
    \field{urlday}{19}
    \field{urlmonth}{06}
    \field{urlyear}{2022}
  \endentry

  \entry{nothman_learning_2013}{article}{}
    \name{author}{5}{}{%
      {{hash=NJ}{%
         family={Nothman},
         familyi={N\bibinitperiod},
         given={Joel},
         giveni={J\bibinitperiod},
      }}%
      {{hash=RN}{%
         family={Ringland},
         familyi={R\bibinitperiod},
         given={Nicky},
         giveni={N\bibinitperiod},
      }}%
      {{hash=RW}{%
         family={Radford},
         familyi={R\bibinitperiod},
         given={Will},
         giveni={W\bibinitperiod},
      }}%
      {{hash=MT}{%
         family={Murphy},
         familyi={M\bibinitperiod},
         given={Tara},
         giveni={T\bibinitperiod},
      }}%
      {{hash=CJR}{%
         family={Curran},
         familyi={C\bibinitperiod},
         given={James\bibnamedelima R.},
         giveni={J\bibinitperiod\bibinitdelim R\bibinitperiod},
      }}%
    }
    \keyw{Annotated corpora, Information extraction, Named entity recognition,
  Semi-structured resources, Semi-supervised learning, Wikipedia}
    \strng{namehash}{NJ+1}
    \strng{fullhash}{NJRNRWMTCJR1}
    \field{labelnamesource}{author}
    \field{labeltitlesource}{title}
    \field{labelyear}{2013}
    \field{labeldatesource}{}
    \field{sortinit}{N}
    \field{sortinithash}{N}
    \verb{doi}
    \verb https://doi.org/10.1016/j.artint.2012.03.006
    \endverb
    \field{issn}{0004-3702}
    \field{pages}{151\bibrangedash 175}
    \field{title}{Learning multilingual named entity recognition from
  {Wikipedia}}
    \verb{url}
    \verb https://www.sciencedirect.com/science/article/pii/S0004370212000276
    \endverb
    \field{volume}{194}
    \field{journaltitle}{Artificial Intelligence}
    \field{year}{2013}
  \endentry

  \entry{pennington2014glove}{inproceedings}{}
    \name{author}{3}{}{%
      {{hash=PJ}{%
         family={Pennington},
         familyi={P\bibinitperiod},
         given={Jeffrey},
         giveni={J\bibinitperiod},
      }}%
      {{hash=SR}{%
         family={Socher},
         familyi={S\bibinitperiod},
         given={Richard},
         giveni={R\bibinitperiod},
      }}%
      {{hash=MCD}{%
         family={Manning},
         familyi={M\bibinitperiod},
         given={Christopher\bibnamedelima D.},
         giveni={C\bibinitperiod\bibinitdelim D\bibinitperiod},
      }}%
    }
    \strng{namehash}{PJSRMCD1}
    \strng{fullhash}{PJSRMCD1}
    \field{labelnamesource}{author}
    \field{labeltitlesource}{title}
    \field{labelyear}{2014}
    \field{labeldatesource}{}
    \field{sortinit}{P}
    \field{sortinithash}{P}
    \field{booktitle}{Empirical Methods in Natural Language Processing (EMNLP)}
    \field{pages}{1532\bibrangedash 1543}
    \field{title}{GloVe: Global Vectors for Word Representation}
    \verb{url}
    \verb http://www.aclweb.org/anthology/D14-1162
    \endverb
    \field{year}{2014}
  \endentry

  \entry{ontonotes5}{misc}{}
    \name{author}{1}{}{%
      {{hash=RWMMEHSPLRNXATJKMFMEBRBAHMP}{%
         family={Ralph\bibnamedelima Weischedel},
         familyi={R\bibinitperiod\bibinitdelim W\bibinitperiod},
         suffix={Martha\bibnamedelima Palmer},
         suffixi={M\bibinitperiod\bibinitdelim P\bibinitperiod},
         given={Mitchell Marcus Eduard Hovy Sameer Pradhan Lance Ramshaw
  Nianwen Xue Ann Taylor Jeff Kaufman Michelle Franchini Mohammed El-Bachouti
  Robert Belvin Ann\bibnamedelima Houston},
         giveni={M\bibinitperiod\bibinitdelim M\bibinitperiod\bibinitdelim
  E\bibinitperiod\bibinitdelim H\bibinitperiod\bibinitdelim
  S\bibinitperiod\bibinitdelim P\bibinitperiod\bibinitdelim
  L\bibinitperiod\bibinitdelim R\bibinitperiod\bibinitdelim
  N\bibinitperiod\bibinitdelim X\bibinitperiod\bibinitdelim
  A\bibinitperiod\bibinitdelim T\bibinitperiod\bibinitdelim
  J\bibinitperiod\bibinitdelim K\bibinitperiod\bibinitdelim
  M\bibinitperiod\bibinitdelim F\bibinitperiod\bibinitdelim
  M\bibinitperiod\bibinitdelim E\bibinithyphendelim
  B\bibinitperiod\bibinitdelim R\bibinitperiod\bibinitdelim
  B\bibinitperiod\bibinitdelim A\bibinitperiod\bibinitdelim H\bibinitperiod},
      }}%
    }
    \strng{namehash}{RWMPMMEHSPLRNXATJKMFMEBRBAH1}
    \strng{fullhash}{RWMPMMEHSPLRNXATJKMFMEBRBAH1}
    \field{labelnamesource}{author}
    \field{labeltitlesource}{title}
    \field{labelyear}{2013}
    \field{labeldatesource}{}
    \field{sortinit}{R}
    \field{sortinithash}{R}
    \field{note}{(Accessed on 07/23/2022)}
    \field{title}{OntoNotes Release 5.0 - Linguistic Data Consortium}
    \verb{url}
    \verb https://catalog.ldc.upenn.edu/LDC2013T19
    \endverb
    \field{month}{10}
    \field{year}{2013}
  \endentry

  \entry{ramshaw-marcus-1995-text}{inproceedings}{}
    \name{author}{2}{}{%
      {{hash=RL}{%
         family={Ramshaw},
         familyi={R\bibinitperiod},
         given={Lance},
         giveni={L\bibinitperiod},
      }}%
      {{hash=MM}{%
         family={Marcus},
         familyi={M\bibinitperiod},
         given={Mitch},
         giveni={M\bibinitperiod},
      }}%
    }
    \strng{namehash}{RLMM1}
    \strng{fullhash}{RLMM1}
    \field{labelnamesource}{author}
    \field{labeltitlesource}{title}
    \field{labelyear}{1995}
    \field{labeldatesource}{}
    \field{sortinit}{R}
    \field{sortinithash}{R}
    \field{booktitle}{Third Workshop on Very Large Corpora}
    \field{title}{Text Chunking using Transformation-Based Learning}
    \verb{url}
    \verb https://aclanthology.org/W95-0107
    \endverb
    \field{year}{1995}
  \endentry

  \entry{rbb_reichstag}{misc}{}
    \name{author}{1}{}{%
      {{hash=r}{%
         family={rbb24},
         familyi={r\bibinitperiod},
      }}%
    }
    \strng{namehash}{r1}
    \strng{fullhash}{r1}
    \field{labelnamesource}{author}
    \field{labeltitlesource}{title}
    \field{labelyear}{2020}
    \field{labeldatesource}{}
    \field{sortinit}{R}
    \field{sortinithash}{R}
    \field{note}{(Accessed on 08/15/2022)}
    \field{title}{Demonstranten stürmen Reichstagstreppe: Entsetzen über
  Reichstags-Eskalation | rbb24}
    \verb{url}
    \verb https://www.rbb24.de/politik/thema/2020/coronavirus/beitraege_neu/202
    \verb 0/08/berlin-reaktionen-reichsflaggen-absperrungen-durchbrochen-reichs
    \verb .html
    \endverb
    \field{month}{08}
    \field{year}{2020}
  \endentry

  \entry{ritter_2011}{inproceedings}{}
    \name{author}{4}{}{%
      {{hash=RA}{%
         family={Ritter},
         familyi={R\bibinitperiod},
         given={Alan},
         giveni={A\bibinitperiod},
      }}%
      {{hash=CS}{%
         family={Clark},
         familyi={C\bibinitperiod},
         given={Sam},
         giveni={S\bibinitperiod},
      }}%
      {{hash=M}{%
         family={Mausam},
         familyi={M\bibinitperiod},
      }}%
      {{hash=EO}{%
         family={Etzioni},
         familyi={E\bibinitperiod},
         given={Oren},
         giveni={O\bibinitperiod},
      }}%
    }
    \list{publisher}{1}{%
      {Association for Computational Linguistics}%
    }
    \strng{namehash}{RA+1}
    \strng{fullhash}{RACSMEO1}
    \field{labelnamesource}{author}
    \field{labeltitlesource}{title}
    \field{labelyear}{2011}
    \field{labeldatesource}{}
    \field{sortinit}{R}
    \field{sortinithash}{R}
    \field{abstract}{%
    People tweet more than 100 Million times daily, yielding a noisy, informal,
  but sometimes informative corpus of 140-character messages that mirrors the
  zeitgeist in an unprecedented manner. The performance of standard NLP tools
  is severely degraded on tweets. This paper addresses this issue by
  re-building the NLP pipeline beginning with part-of-speech tagging, through
  chunking, to named-entity recognition. Our novel T-ner system doubles F1
  score compared with the Stanford NER system. T-ner leverages the redundancy
  inherent in tweets to achieve this performance, using LabeledLDA to exploit
  Freebase dictionaries as a source of distant supervision. LabeledLDA
  outperforms co-training, increasing F1 by 25% over ten common entity
  types.Our NLP tools are available at: http://github.com/aritter/twitter_nlp%
    }
    \field{booktitle}{Proceedings of the Conference on Empirical Methods in
  Natural Language Processing}
    \field{isbn}{9781937284114}
    \field{pages}{1524–1534}
    \field{series}{EMNLP '11}
    \field{title}{Named Entity Recognition in Tweets: An Experimental Study}
    \list{location}{1}{%
      {Edinburgh, United Kingdom}%
    }
    \field{year}{2011}
    \warn{\item Can't use 'location' + 'address'}
  \endentry

  \entry{bloomberg}{misc}{}
    \name{author}{1}{}{%
      {{hash=RI}{%
         family={Rogers},
         familyi={R\bibinitperiod},
         given={Iain},
         giveni={I\bibinitperiod},
      }}%
    }
    \strng{namehash}{RI1}
    \strng{fullhash}{RI1}
    \field{labelnamesource}{author}
    \field{labeltitlesource}{title}
    \field{labelyear}{2022}
    \field{labeldatesource}{}
    \field{sortinit}{R}
    \field{sortinithash}{R}
    \field{note}{(Accessed on 08/15/2022)}
    \field{title}{Karl Lauterbach: Germany Foils Plot to Kidnap Health Minister
  - Bloomberg}
    \verb{url}
    \verb https://www.bloomberg.com/news/articles/2022-04-14/germany-foils-plot
    \verb -to-sabotage-democracy-kidnap-health-minister
    \endverb
    \field{month}{04}
    \field{year}{2022}
  \endentry

  \entry{schiersch_2018}{inproceedings}{}
    \name{author}{6}{}{%
      {{hash=SM}{%
         family={Schiersch},
         familyi={S\bibinitperiod},
         given={Martin},
         giveni={M\bibinitperiod},
      }}%
      {{hash=MV}{%
         family={Mironova},
         familyi={M\bibinitperiod},
         given={Veselina},
         giveni={V\bibinitperiod},
      }}%
      {{hash=SM}{%
         family={Schmitt},
         familyi={S\bibinitperiod},
         given={Maximilian},
         giveni={M\bibinitperiod},
      }}%
      {{hash=TP}{%
         family={Thomas},
         familyi={T\bibinitperiod},
         given={Philippe},
         giveni={P\bibinitperiod},
      }}%
      {{hash=GA}{%
         family={Gabryszak},
         familyi={G\bibinitperiod},
         given={Aleksandra},
         giveni={A\bibinitperiod},
      }}%
      {{hash=HL}{%
         family={Hennig},
         familyi={H\bibinitperiod},
         given={Leonhard},
         giveni={L\bibinitperiod},
      }}%
    }
    \name{editor}{14}{}{%
      {{hash=cNCC}{%
         family={chair)},
         familyi={c\bibinitperiod},
         given={Nicoletta Calzolari\bibnamedelima (Conference},
         giveni={N\bibinitperiod\bibinitdelim C\bibinitperiod\bibinitdelim
  C\bibinitperiod},
      }}%
      {{hash=CK}{%
         family={Choukri},
         familyi={C\bibinitperiod},
         given={Khalid},
         giveni={K\bibinitperiod},
      }}%
      {{hash=CC}{%
         family={Cieri},
         familyi={C\bibinitperiod},
         given={Christopher},
         giveni={C\bibinitperiod},
      }}%
      {{hash=DT}{%
         family={Declerck},
         familyi={D\bibinitperiod},
         given={Thierry},
         giveni={T\bibinitperiod},
      }}%
      {{hash=GS}{%
         family={Goggi},
         familyi={G\bibinitperiod},
         given={Sara},
         giveni={S\bibinitperiod},
      }}%
      {{hash=HK}{%
         family={Hasida},
         familyi={H\bibinitperiod},
         given={Koiti},
         giveni={K\bibinitperiod},
      }}%
      {{hash=IH}{%
         family={Isahara},
         familyi={I\bibinitperiod},
         given={Hitoshi},
         giveni={H\bibinitperiod},
      }}%
      {{hash=MB}{%
         family={Maegaard},
         familyi={M\bibinitperiod},
         given={Bente},
         giveni={B\bibinitperiod},
      }}%
      {{hash=MJ}{%
         family={Mariani},
         familyi={M\bibinitperiod},
         given={Joseph},
         giveni={J\bibinitperiod},
      }}%
      {{hash=MH}{%
         family={Mazo},
         familyi={M\bibinitperiod},
         given={Hélène},
         giveni={H\bibinitperiod},
      }}%
      {{hash=MA}{%
         family={Moreno},
         familyi={M\bibinitperiod},
         given={Asuncion},
         giveni={A\bibinitperiod},
      }}%
      {{hash=OJ}{%
         family={Odijk},
         familyi={O\bibinitperiod},
         given={Jan},
         giveni={J\bibinitperiod},
      }}%
      {{hash=PS}{%
         family={Piperidis},
         familyi={P\bibinitperiod},
         given={Stelios},
         giveni={S\bibinitperiod},
      }}%
      {{hash=TT}{%
         family={Tokunaga},
         familyi={T\bibinitperiod},
         given={Takenobu},
         giveni={T\bibinitperiod},
      }}%
    }
    \list{language}{1}{%
      {english}%
    }
    \list{publisher}{1}{%
      {European Language Resources Association (ELRA)}%
    }
    \strng{namehash}{SM+1}
    \strng{fullhash}{SMMVSMTPGAHL1}
    \field{labelnamesource}{author}
    \field{labeltitlesource}{title}
    \field{labelyear}{2018}
    \field{labeldatesource}{}
    \field{sortinit}{S}
    \field{sortinithash}{S}
    \field{booktitle}{Proceedings of the Eleventh International Conference on
  Language Resources and Evaluation (LREC 2018)}
    \field{isbn}{979-10-95546-00-9}
    \field{title}{{A German Corpus for Fine-Grained Named Entity Recognition
  and Relation Extraction of Traffic and Industry Events}}
    \list{location}{1}{%
      {Miyazaki, Japan}%
    }
    \field{year}{2018}
    \warn{\item Invalid format of field 'month'}
  \endentry

  \entry{schweter2020flert}{misc}{}
    \name{author}{2}{}{%
      {{hash=SS}{%
         family={Schweter},
         familyi={S\bibinitperiod},
         given={Stefan},
         giveni={S\bibinitperiod},
      }}%
      {{hash=AA}{%
         family={Akbik},
         familyi={A\bibinitperiod},
         given={Alan},
         giveni={A\bibinitperiod},
      }}%
    }
    \strng{namehash}{SSAA1}
    \strng{fullhash}{SSAA1}
    \field{labelnamesource}{author}
    \field{labeltitlesource}{title}
    \field{labelyear}{2020}
    \field{labeldatesource}{}
    \field{sortinit}{S}
    \field{sortinithash}{S}
    \verb{eprint}
    \verb 2011.06993
    \endverb
    \field{title}{FLERT: Document-Level Features for Named Entity Recognition}
    \field{eprinttype}{arXiv}
    \field{eprintclass}{cs.CL}
    \field{year}{2020}
  \endentry

  \entry{smartdata_anno}{misc}{}
    \name{author}{6}{}{%
      {{hash=SS}{%
         family={Schön},
         familyi={S\bibinitperiod},
         given={Saskia},
         giveni={S\bibinitperiod},
      }}%
      {{hash=KS}{%
         family={Krause},
         familyi={K\bibinitperiod},
         given={Sebastian},
         giveni={S\bibinitperiod},
      }}%
      {{hash=MV}{%
         family={Mironova},
         familyi={M\bibinitperiod},
         given={Veselina},
         giveni={V\bibinitperiod},
      }}%
      {{hash=HL}{%
         family={Hennig},
         familyi={H\bibinitperiod},
         given={Leonhard},
         giveni={L\bibinitperiod},
      }}%
      {{hash=GA}{%
         family={Gabryszak},
         familyi={G\bibinitperiod},
         given={Aleksandra},
         giveni={A\bibinitperiod},
      }}%
      {{hash=TP}{%
         family={Thomas},
         familyi={T\bibinitperiod},
         given={Philippe},
         giveni={P\bibinitperiod},
      }}%
    }
    \strng{namehash}{SS+1}
    \strng{fullhash}{SSKSMVHLGATP1}
    \field{labelnamesource}{author}
    \field{labeltitlesource}{title}
    \field{labelyear}{2018}
    \field{labeldatesource}{}
    \field{sortinit}{S}
    \field{sortinithash}{S}
    \field{note}{(Accessed on 07/23/2022)}
    \field{title}{DFKI Annotation Guidelines, Version 1.0}
    \verb{url}
    \verb https://github.com/DFKI-NLP/smartdata-corpus/blob/master/SmartData_Co
    \verb rpus_Annotation_Guidelines_Feb_2018_v1.0.pdf
    \endverb
    \field{year}{2018}
  \endentry

  \entry{shahsavari_conspiracy_2020}{article}{}
    \name{author}{5}{}{%
      {{hash=SS}{%
         family={Shahsavari},
         familyi={S\bibinitperiod},
         given={Shadi},
         giveni={S\bibinitperiod},
      }}%
      {{hash=HP}{%
         family={Holur},
         familyi={H\bibinitperiod},
         given={Pavan},
         giveni={P\bibinitperiod},
      }}%
      {{hash=WT}{%
         family={Wang},
         familyi={W\bibinitperiod},
         given={Tianyi},
         giveni={T\bibinitperiod},
      }}%
      {{hash=TTR}{%
         family={Tangherlini},
         familyi={T\bibinitperiod},
         given={Timothy\bibnamedelima R.},
         giveni={T\bibinitperiod\bibinitdelim R\bibinitperiod},
      }}%
      {{hash=RV}{%
         family={Roychowdhury},
         familyi={R\bibinitperiod},
         given={Vwani},
         giveni={V\bibinitperiod},
      }}%
    }
    \strng{namehash}{SS+2}
    \strng{fullhash}{SSHPWTTTRRV1}
    \field{labelnamesource}{author}
    \field{labeltitlesource}{shorttitle}
    \field{labelyear}{2020}
    \field{labeldatesource}{}
    \field{sortinit}{S}
    \field{sortinithash}{S}
    \field{abstract}{%
    Rumors and conspiracy theories thrive in environments of low confidence and
  low trust. Consequently, it is not surprising that ones related to the
  COVID-19 pandemic are proliferating given the lack of scientific consensus on
  the virus’s spread and containment, or on the long-term social and economic
  ramifications of the pandemic. Among the stories currently circulating in
  US-focused social media forums are ones suggesting that the 5G
  telecommunication network activates the virus, that the pandemic is a hoax
  perpetrated by a global cabal, that the virus is a bio-weapon released
  deliberately by the Chinese, or that Bill Gates is using it as cover to
  launch a broad vaccination program to facilitate a global surveillance
  regime. While some may be quick to dismiss these stories as having little
  impact on real-world behavior, recent events including the destruction of
  cell phone towers, racially fueled attacks against Asian Americans,
  demonstrations espousing resistance to public health orders, and wide-scale
  defiance of scientifically sound public mandates such as those to wear masks
  and practice social distancing, countermand such conclusions. Inspired by
  narrative theory, we crawl social media sites and news reports and, through
  the application of automated machine-learning methods, discover the
  underlying narrative frameworks supporting the generation of rumors and
  conspiracy theories. We show how the various narrative frameworks fueling
  these stories rely on the alignment of otherwise disparate domains of
  knowledge, and consider how they attach to the broader reporting on the
  pandemic. These alignments and attachments, which can be monitored in near
  real time, may be useful for identifying areas in the news that are
  particularly vulnerable to reinterpretation by conspiracy theorists.
  Understanding the dynamics of storytelling on social media and the narrative
  frameworks that provide the generative basis for these stories may also be
  helpful for devising methods to disrupt their spread.%
    }
    \verb{doi}
    \verb 10.1007/s42001-020-00086-5
    \endverb
    \field{issn}{2432-2717}
    \field{number}{2}
    \field{pages}{279\bibrangedash 317}
    \field{shorttitle}{Conspiracy in the time of corona}
    \field{title}{Conspiracy in the time of corona: automatic detection of
  emerging {COVID}-19 conspiracy theories in social media and the news}
    \verb{url}
    \verb https://www.ncbi.nlm.nih.gov/pmc/articles/PMC7591696/
    \endverb
    \field{volume}{3}
    \verb{file}
    \verb Full Text:/Users/elisabeth/Zotero/storage/9PREDSW8/Shahsavari et al.
    \verb - 2020 - Conspiracy in the time of corona automatic detect.pdf:applic
    \verb ation/pdf
    \endverb
    \field{journaltitle}{Journal of Computational Social Science}
    \field{year}{2020}
    \field{urlday}{15}
    \field{urlmonth}{05}
    \field{urlyear}{2022}
  \endentry

  \entry{singh_natural_2008}{inproceedings}{}
    \name{author}{1}{}{%
      {{hash=SAK}{%
         family={Singh},
         familyi={S\bibinitperiod},
         given={Anil\bibnamedelima Kumar},
         giveni={A\bibinitperiod\bibinitdelim K\bibinitperiod},
      }}%
    }
    \strng{namehash}{SAK1}
    \strng{fullhash}{SAK1}
    \field{labelnamesource}{author}
    \field{labeltitlesource}{shorttitle}
    \field{labelyear}{2008}
    \field{labeldatesource}{}
    \field{sortinit}{S}
    \field{sortinithash}{S}
    \field{booktitle}{Proceedings of the {IJCNLP}-08 {Workshop} on {NLP} for
  {Less} {Privileged} {Languages}}
    \field{shorttitle}{Natural {Language} {Processing} for {Less} {Privileged}
  {Languages}}
    \field{title}{Natural {Language} {Processing} for {Less} {Privileged}
  {Languages}: {Where} do we come from? {Where} are we going?}
    \verb{url}
    \verb https://aclanthology.org/I08-3004
    \endverb
    \verb{file}
    \verb Full Text PDF:/Users/elisabeth/Zotero/storage/9BL3L9MB/Singh - 2008 -
    \verb  Natural Language Processing for Less Privileged La.pdf:application/p
    \verb df
    \endverb
    \field{year}{2008}
    \field{urlday}{19}
    \field{urlmonth}{06}
    \field{urlyear}{2022}
  \endentry

  \entry{strauss_results_2016}{inproceedings}{}
    \name{author}{5}{}{%
      {{hash=SB}{%
         family={Strauss},
         familyi={S\bibinitperiod},
         given={Benjamin},
         giveni={B\bibinitperiod},
      }}%
      {{hash=TB}{%
         family={Toma},
         familyi={T\bibinitperiod},
         given={Bethany},
         giveni={B\bibinitperiod},
      }}%
      {{hash=RA}{%
         family={Ritter},
         familyi={R\bibinitperiod},
         given={Alan},
         giveni={A\bibinitperiod},
      }}%
      {{hash=dMMC}{%
         prefix={de},
         prefixi={d\bibinitperiod},
         family={Marneffe},
         familyi={M\bibinitperiod},
         given={Marie-Catherine},
         giveni={M\bibinithyphendelim C\bibinitperiod},
      }}%
      {{hash=XW}{%
         family={Xu},
         familyi={X\bibinitperiod},
         given={Wei},
         giveni={W\bibinitperiod},
      }}%
    }
    \list{publisher}{1}{%
      {The COLING 2016 Organizing Committee}%
    }
    \strng{namehash}{SB+1}
    \strng{fullhash}{SBTBRAMMCdXW1}
    \field{labelnamesource}{author}
    \field{labeltitlesource}{title}
    \field{labelyear}{2016}
    \field{labeldatesource}{}
    \field{sortinit}{S}
    \field{sortinithash}{S}
    \field{abstract}{%
    This paper presents the results of the Twitter Named Entity Recognition
  shared task associated with W-NUT 2016: a named entity tagging task with 10
  teams participating. We outline the shared task, annotation process and
  dataset statistics, and provide a high-level overview of the participating
  systems for each shared task.%
    }
    \field{booktitle}{Proceedings of the 2nd {Workshop} on {Noisy}
  {User}-generated {Text} ({WNUT})}
    \field{pages}{138\bibrangedash 144}
    \field{title}{Results of the {WNUT16} {Named} {Entity} {Recognition}
  {Shared} {Task}}
    \verb{url}
    \verb https://aclanthology.org/W16-3919
    \endverb
    \list{location}{1}{%
      {Osaka, Japan}%
    }
    \verb{file}
    \verb Full Text PDF:/Users/elisabeth/Zotero/storage/U7I6J9CN/Strauss et al.
    \verb  - 2016 - Results of the WNUT16 Named Entity Recognition Sha.pdf:appl
    \verb ication/pdf
    \endverb
    \field{month}{12}
    \field{year}{2016}
    \field{urlday}{21}
    \field{urlmonth}{07}
    \field{urlyear}{2022}
  \endentry

  \entry{tangherlini_automated_2020}{article}{}
    \name{author}{5}{}{%
      {{hash=TTR}{%
         family={Tangherlini},
         familyi={T\bibinitperiod},
         given={Timothy\bibnamedelima R.},
         giveni={T\bibinitperiod\bibinitdelim R\bibinitperiod},
      }}%
      {{hash=SS}{%
         family={Shahsavari},
         familyi={S\bibinitperiod},
         given={Shadi},
         giveni={S\bibinitperiod},
      }}%
      {{hash=SB}{%
         family={Shahbazi},
         familyi={S\bibinitperiod},
         given={Behnam},
         giveni={B\bibinitperiod},
      }}%
      {{hash=EE}{%
         family={Ebrahimzadeh},
         familyi={E\bibinitperiod},
         given={Ehsan},
         giveni={E\bibinitperiod},
      }}%
      {{hash=RV}{%
         family={Roychowdhury},
         familyi={R\bibinitperiod},
         given={Vwani},
         giveni={V\bibinitperiod},
      }}%
    }
    \name{editor}{1}{}{%
      {{hash=LYR}{%
         family={Lin},
         familyi={L\bibinitperiod},
         given={Yu-Ru},
         giveni={Y\bibinithyphendelim R\bibinitperiod},
      }}%
    }
    \list{language}{1}{%
      {en}%
    }
    \strng{namehash}{TTR+1}
    \strng{fullhash}{TTRSSSBEERV1}
    \field{labelnamesource}{author}
    \field{labeltitlesource}{shorttitle}
    \field{labelyear}{2020}
    \field{labeldatesource}{}
    \field{sortinit}{T}
    \field{sortinithash}{T}
    \verb{doi}
    \verb 10.1371/journal.pone.0233879
    \endverb
    \field{issn}{1932-6203}
    \field{number}{6}
    \field{pages}{e0233879}
    \field{shorttitle}{An automated pipeline for the discovery of conspiracy
  and conspiracy theory narrative frameworks}
    \field{title}{An automated pipeline for the discovery of conspiracy and
  conspiracy theory narrative frameworks: {Bridgegate}, {Pizzagate} and
  storytelling on the web}
    \verb{url}
    \verb https://dx.plos.org/10.1371/journal.pone.0233879
    \endverb
    \field{volume}{15}
    \verb{file}
    \verb Tangherlini et al. - 2020 - An automated pipeline for the discovery o
    \verb f conspir.pdf:/Users/elisabeth/Zotero/storage/3UZW8FTS/Tangherlini et
    \verb  al. - 2020 - An automated pipeline for the discovery of conspir.pdf:
    \verb application/pdf
    \endverb
    \field{journaltitle}{PLOS ONE}
    \field{month}{06}
    \field{year}{2020}
    \field{urlday}{15}
    \field{urlmonth}{05}
    \field{urlyear}{2022}
  \endentry

  \entry{tjong_kim_sang_introduction_2003}{inproceedings}{}
    \name{author}{2}{}{%
      {{hash=TKSEF}{%
         family={Tjong Kim\bibnamedelima Sang},
         familyi={T\bibinitperiod\bibinitdelim K\bibinitperiod\bibinitdelim
  S\bibinitperiod},
         given={Erik\bibnamedelima F.},
         giveni={E\bibinitperiod\bibinitdelim F\bibinitperiod},
      }}%
      {{hash=DMF}{%
         family={De\bibnamedelima Meulder},
         familyi={D\bibinitperiod\bibinitdelim M\bibinitperiod},
         given={Fien},
         giveni={F\bibinitperiod},
      }}%
    }
    \strng{namehash}{TKSEFDMF1}
    \strng{fullhash}{TKSEFDMF1}
    \field{labelnamesource}{author}
    \field{labeltitlesource}{shorttitle}
    \field{labelyear}{2003}
    \field{labeldatesource}{}
    \field{sortinit}{T}
    \field{sortinithash}{T}
    \field{booktitle}{Proceedings of the {Seventh} {Conference} on {Natural}
  {Language} {Learning} at {HLT}-{NAACL} 2003}
    \field{pages}{142\bibrangedash 147}
    \field{shorttitle}{Introduction to the {CoNLL}-2003 {Shared} {Task}}
    \field{title}{Introduction to the {CoNLL}-2003 {Shared} {Task}:
  {Language}-{Independent} {Named} {Entity} {Recognition}}
    \verb{url}
    \verb https://aclanthology.org/W03-0419
    \endverb
    \verb{file}
    \verb Full Text PDF:/Users/elisabeth/Zotero/storage/67PGUHNA/Tjong Kim Sang
    \verb  and De Meulder - 2003 - Introduction to the CoNLL-2003 Shared Task L
    \verb angua.pdf:application/pdf
    \endverb
    \field{year}{2003}
    \field{urlday}{19}
    \field{urlmonth}{06}
    \field{urlyear}{2022}
  \endentry

  \entry{tunstall_natural_2022}{book}{}
    \name{author}{4}{}{%
      {{hash=TL}{%
         family={Tunstall},
         familyi={T\bibinitperiod},
         given={Lewis},
         giveni={L\bibinitperiod},
      }}%
      {{hash=WLv}{%
         family={Werra},
         familyi={W\bibinitperiod},
         given={Leandro\bibnamedelima von},
         giveni={L\bibinitperiod\bibinitdelim v\bibinitperiod},
      }}%
      {{hash=WT}{%
         family={Wolf},
         familyi={W\bibinitperiod},
         given={Thomas},
         giveni={T\bibinitperiod},
      }}%
      {{hash=GA}{%
         family={Géron},
         familyi={G\bibinitperiod},
         given={Aurélien},
         giveni={A\bibinitperiod},
      }}%
    }
    \list{language}{1}{%
      {eng}%
    }
    \list{publisher}{1}{%
      {O'Reilly}%
    }
    \strng{namehash}{TL+1}
    \strng{fullhash}{TLWLvWTGA1}
    \field{labelnamesource}{author}
    \field{labeltitlesource}{shorttitle}
    \field{labelyear}{2022}
    \field{labeldatesource}{}
    \field{sortinit}{T}
    \field{sortinithash}{T}
    \field{edition}{First edition}
    \field{isbn}{978-1-09-810324-8}
    \field{shorttitle}{Natural language processing with {Transformers}}
    \field{title}{Natural language processing with {Transformers}: building
  language applications with {Hugging} {Face}}
    \list{location}{1}{%
      {Beijing Boston Farnham Sebastopol Tokyo}%
    }
    \field{year}{2022}
  \endentry

  \entry{vajjala_practical_2020}{book}{}
    \name{author}{4}{}{%
      {{hash=VS}{%
         family={Vajjala},
         familyi={V\bibinitperiod},
         given={Sowmya},
         giveni={S\bibinitperiod},
      }}%
      {{hash=MB}{%
         family={Majumder},
         familyi={M\bibinitperiod},
         given={Bodhisattwa},
         giveni={B\bibinitperiod},
      }}%
      {{hash=GA}{%
         family={Gupta},
         familyi={G\bibinitperiod},
         given={Anju},
         giveni={A\bibinitperiod},
      }}%
      {{hash=SH}{%
         family={Surana},
         familyi={S\bibinitperiod},
         given={Harshit},
         giveni={H\bibinitperiod},
      }}%
    }
    \list{publisher}{1}{%
      {O'Reilly Media}%
    }
    \keyw{Application software, Development, Machine learning, Natural language
  processing (Computer science), Text data mining}
    \strng{namehash}{VS+1}
    \strng{fullhash}{VSMBGASH1}
    \field{labelnamesource}{author}
    \field{labeltitlesource}{shorttitle}
    \field{labelyear}{2020}
    \field{labeldatesource}{}
    \field{sortinit}{V}
    \field{sortinithash}{V}
    \field{abstract}{%
    "Many books and courses tackle natural language processing (NLP) problems
  with toy use cases and well-defined datasets. But if you want to build,
  iterate, and scale NLP systems in a business setting and tailor them for
  particular industry verticals, this is your guide. Software engineers and
  data scientists will learn how to navigate the maze of options available at
  each step of the journey. Through the course of the book, authors Sowmya
  Vajjala, Bodhisattwa Majumder, Anuj Gupta, and Harshit Surana will guide you
  through the process of building real-world NLP solutions embedded in larger
  product setups. You'll learn how to adapt your solutions for different
  industry verticals such as healthcare, social media, and retail."--%
    }
    \field{edition}{First edition}
    \field{isbn}{978-1-4920-5405-4}
    \field{note}{OCLC: on1125266646}
    \field{shorttitle}{Practical natural language processing}
    \field{title}{Practical natural language processing: a comprehensive guide
  to building real-world {NLP} systems}
    \list{location}{1}{%
      {Sebastopol, CA}%
    }
    \field{year}{2020}
  \endentry

  \entry{vaswani_2017}{misc}{}
    \name{author}{8}{}{%
      {{hash=VA}{%
         family={Vaswani},
         familyi={V\bibinitperiod},
         given={Ashish},
         giveni={A\bibinitperiod},
      }}%
      {{hash=SN}{%
         family={Shazeer},
         familyi={S\bibinitperiod},
         given={Noam},
         giveni={N\bibinitperiod},
      }}%
      {{hash=PN}{%
         family={Parmar},
         familyi={P\bibinitperiod},
         given={Niki},
         giveni={N\bibinitperiod},
      }}%
      {{hash=UJ}{%
         family={Uszkoreit},
         familyi={U\bibinitperiod},
         given={Jakob},
         giveni={J\bibinitperiod},
      }}%
      {{hash=JL}{%
         family={Jones},
         familyi={J\bibinitperiod},
         given={Llion},
         giveni={L\bibinitperiod},
      }}%
      {{hash=GAN}{%
         family={Gomez},
         familyi={G\bibinitperiod},
         given={Aidan\bibnamedelima N.},
         giveni={A\bibinitperiod\bibinitdelim N\bibinitperiod},
      }}%
      {{hash=KL}{%
         family={Kaiser},
         familyi={K\bibinitperiod},
         given={Lukasz},
         giveni={L\bibinitperiod},
      }}%
      {{hash=PI}{%
         family={Polosukhin},
         familyi={P\bibinitperiod},
         given={Illia},
         giveni={I\bibinitperiod},
      }}%
    }
    \strng{namehash}{VA+1}
    \strng{fullhash}{VASNPNUJJLGANKLPI1}
    \field{labelnamesource}{author}
    \field{labeltitlesource}{title}
    \field{labelyear}{2017}
    \field{labeldatesource}{}
    \field{sortinit}{V}
    \field{sortinithash}{V}
    \verb{doi}
    \verb 10.48550/ARXIV.1706.03762
    \endverb
    \field{title}{Attention Is All You Need}
    \verb{url}
    \verb https://arxiv.org/abs/1706.03762
    \endverb
    \field{year}{2017}
  \endentry

  \entry{teledash_2022}{misc}{}
    \name{author}{2}{}{%
      {{hash=WG}{%
         family={Weichbrodt},
         familyi={W\bibinitperiod},
         given={Gregor},
         giveni={G\bibinitperiod},
      }}%
      {{hash=SG}{%
         family={Stanjek},
         familyi={S\bibinitperiod},
         given={Grischa},
         giveni={G\bibinitperiod},
      }}%
    }
    \strng{namehash}{WGSG1}
    \strng{fullhash}{WGSG1}
    \field{labelnamesource}{author}
    \field{labeltitlesource}{title}
    \field{labelyear}{2022}
    \field{labeldatesource}{}
    \field{sortinit}{W}
    \field{sortinithash}{W}
    \field{title}{Teledash – analysis and research software for Telegram}
    \verb{url}
    \verb https://github.com/democ-de/teledash
    \endverb
    \field{year}{2022}
  \endentry

  \entry{yadav_survey_2019}{report}{}
    \name{author}{2}{}{%
      {{hash=YV}{%
         family={Yadav},
         familyi={Y\bibinitperiod},
         given={Vikas},
         giveni={V\bibinitperiod},
      }}%
      {{hash=BS}{%
         family={Bethard},
         familyi={B\bibinitperiod},
         given={Steven},
         giveni={S\bibinitperiod},
      }}%
    }
    \keyw{Computer Science - Computation and Language, Computer Science -
  Machine Learning}
    \strng{namehash}{YVBS1}
    \strng{fullhash}{YVBS1}
    \field{labelnamesource}{author}
    \field{labeltitlesource}{title}
    \field{labelyear}{2019}
    \field{labeldatesource}{}
    \field{sortinit}{Y}
    \field{sortinithash}{Y}
    \field{abstract}{%
    Named Entity Recognition (NER) is a key component in NLP systems for
  question answering, information retrieval, relation extraction, etc. NER
  systems have been studied and developed widely for decades, but accurate
  systems using deep neural networks (NN) have only been introduced in the last
  few years. We present a comprehensive survey of deep neural network
  architectures for NER, and contrast them with previous approaches to NER
  based on feature engineering and other supervised or semi-supervised learning
  algorithms. Our results highlight the improvements achieved by neural
  networks, and show how incorporating some of the lessons learned from past
  work on feature-based NER systems can yield further improvements.%
    }
    \field{note}{arXiv:1910.11470 [cs] type: article}
    \field{number}{arXiv:1910.11470}
    \field{title}{A {Survey} on {Recent} {Advances} in {Named} {Entity}
  {Recognition} from {Deep} {Learning} models}
    \verb{url}
    \verb http://arxiv.org/abs/1910.11470
    \endverb
    \list{institution}{1}{%
      {arXiv}%
    }
    \verb{file}
    \verb arXiv Fulltext PDF:/Users/elisabeth/Zotero/storage/PGAX6CWC/Yadav and
    \verb  Bethard - 2019 - A Survey on Recent Advances in Named Entity Recogn.
    \verb pdf:application/pdf;arXiv.org Snapshot:/Users/elisabeth/Zotero/storag
    \verb e/UXNXMD2R/1910.html:text/html
    \endverb
    \field{type}{techreport}
    \field{month}{10}
    \field{year}{2019}
    \field{urlday}{14}
    \field{urlmonth}{05}
    \field{urlyear}{2022}
  \endentry

  \entry{zong_information_2021}{incollection}{}
    \name{author}{3}{}{%
      {{hash=ZC}{%
         family={Zong},
         familyi={Z\bibinitperiod},
         given={Chengqing},
         giveni={C\bibinitperiod},
      }}%
      {{hash=XR}{%
         family={Xia},
         familyi={X\bibinitperiod},
         given={Rui},
         giveni={R\bibinitperiod},
      }}%
      {{hash=ZJ}{%
         family={Zhang},
         familyi={Z\bibinitperiod},
         given={Jiajun},
         giveni={J\bibinitperiod},
      }}%
    }
    \list{language}{1}{%
      {en}%
    }
    \list{publisher}{1}{%
      {Springer Singapore}%
    }
    \strng{namehash}{ZCXRZJ1}
    \strng{fullhash}{ZCXRZJ1}
    \field{labelnamesource}{author}
    \field{labeltitlesource}{title}
    \field{labelyear}{2021}
    \field{labeldatesource}{}
    \field{sortinit}{Z}
    \field{sortinithash}{Z}
    \field{booktitle}{Text {Data} {Mining}}
    \verb{doi}
    \verb 10.1007/978-981-16-0100-2_10
    \endverb
    \field{isbn}{9789811600999 9789811601002}
    \field{pages}{227\bibrangedash 283}
    \field{title}{Information {Extraction}}
    \verb{url}
    \verb https://link.springer.com/10.1007/978-981-16-0100-2_10
    \endverb
    \list{location}{1}{%
      {Singapore}%
    }
    \verb{file}
    \verb Zong et al. - 2021 - Information Extraction.pdf:/Users/elisabeth/Zote
    \verb ro/storage/4Y4VBWGY/Zong et al. - 2021 - Information Extraction.pdf:a
    \verb pplication/pdf
    \endverb
    \field{year}{2021}
    \field{urlday}{14}
    \field{urlmonth}{05}
    \field{urlyear}{2022}
  \endentry
\enddatalist
\endinput
