\relax 
\providecommand\hyper@newdestlabel[2]{}
\AC@reset@newl@bel
\bibstyle{biblatex}
\bibdata{thesis-blx,thesis}
\citation{biblatex-control}
\abx@aux@refcontext{nyt/global//global/global}
\providecommand\HyperFirstAtBeginDocument{\AtBeginDocument}
\HyperFirstAtBeginDocument{\ifx\hyper@anchor\@undefined
\global\let\oldcontentsline\contentsline
\gdef\contentsline#1#2#3#4{\oldcontentsline{#1}{#2}{#3}}
\global\let\oldnewlabel\newlabel
\gdef\newlabel#1#2{\newlabelxx{#1}#2}
\gdef\newlabelxx#1#2#3#4#5#6{\oldnewlabel{#1}{{#2}{#3}}}
\AtEndDocument{\ifx\hyper@anchor\@undefined
\let\contentsline\oldcontentsline
\let\newlabel\oldnewlabel
\fi}
\fi}
\global\let\hyper@last\relax 
\gdef\HyperFirstAtBeginDocument#1{#1}
\providecommand\HyField@AuxAddToFields[1]{}
\providecommand\HyField@AuxAddToCoFields[2]{}
\providecommand \oddpage@label [2]{}
\providecommand\@newglossary[4]{}
\@newglossary{main}{glg}{gls}{glo}
\@newglossary{acronym}{alg}{acr}{acn}
\providecommand\@glsorder[1]{}
\providecommand\@istfilename[1]{}
\@istfilename{thesis.ist}
\@glsorder{word}
\@writefile{toc}{\contentsline {chapter}{Acronyms}{1}{section*.3}\protected@file@percent }
\citation{fns_study}
\abx@aux@cite{0}{fns_study}
\abx@aux@segm{0}{0}{fns_study}
\citation{fgz_2020}
\abx@aux@cite{0}{fgz_2020}
\abx@aux@segm{0}{0}{fgz_2020}
\citation{rbb_reichstag}
\abx@aux@cite{0}{rbb_reichstag}
\abx@aux@segm{0}{0}{rbb_reichstag}
\@writefile{toc}{\contentsline {chapter}{\numberline {1}Introduction}{3}{chapter.1}\protected@file@percent }
\@writefile{lof}{\addvspace {10\p@ }}
\@writefile{lot}{\addvspace {10\p@ }}
\newlabel{cha:introduction}{{1}{3}{Introduction}{chapter.1}{}}
\abx@aux@page{1}{3}
\abx@aux@page{2}{3}
\citation{cemas_2022}
\abx@aux@cite{0}{cemas_2022}
\abx@aux@segm{0}{0}{cemas_2022}
\citation{cemas_2022}
\abx@aux@cite{0}{cemas_2022}
\abx@aux@segm{0}{0}{cemas_2022}
\citation{klaus_zdf}
\abx@aux@cite{0}{klaus_zdf}
\abx@aux@segm{0}{0}{klaus_zdf}
\citation{bloomberg}
\abx@aux@cite{0}{bloomberg}
\abx@aux@segm{0}{0}{bloomberg}
\abx@aux@page{3}{4}
\abx@aux@page{4}{4}
\abx@aux@page{6}{4}
\abx@aux@fnpage{5}{4}
\citation{fgz_2020}
\abx@aux@cite{0}{fgz_2020}
\abx@aux@segm{0}{0}{fgz_2020}
\citation{bmr_2020}
\abx@aux@cite{0}{bmr_2020}
\abx@aux@segm{0}{0}{bmr_2020}
\citation{fgz_2020}
\abx@aux@cite{0}{fgz_2020}
\abx@aux@segm{0}{0}{fgz_2020}
\abx@aux@page{7}{5}
\abx@aux@page{8}{5}
\abx@aux@page{9}{5}
\abx@aux@page{10}{5}
\citation{teledash_2022}
\abx@aux@cite{0}{teledash_2022}
\abx@aux@segm{0}{0}{teledash_2022}
\abx@aux@page{11}{6}
\citation{grishman_message_1996}
\abx@aux@cite{0}{grishman_message_1996}
\abx@aux@segm{0}{0}{grishman_message_1996}
\citation{muc7_ner}
\abx@aux@cite{0}{muc7_ner}
\abx@aux@segm{0}{0}{muc7_ner}
\citation{zong_information_2021}
\abx@aux@cite{0}{zong_information_2021}
\abx@aux@segm{0}{0}{zong_information_2021}
\@writefile{toc}{\contentsline {chapter}{\numberline {2}Named Entity Recognition: An Introduction}{8}{chapter.2}\protected@file@percent }
\@writefile{lof}{\addvspace {10\p@ }}
\@writefile{lot}{\addvspace {10\p@ }}
\newlabel{cha:ner_intro}{{2}{8}{Named Entity Recognition: An Introduction}{chapter.2}{}}
\abx@aux@page{12}{8}
\abx@aux@page{13}{8}
\citation{jurafsky_2021}
\abx@aux@cite{0}{jurafsky_2021}
\abx@aux@segm{0}{0}{jurafsky_2021}
\citation{jurafsky_2021}
\abx@aux@cite{0}{jurafsky_2021}
\abx@aux@segm{0}{0}{jurafsky_2021}
\citation{zong_information_2021}
\abx@aux@cite{0}{zong_information_2021}
\abx@aux@segm{0}{0}{zong_information_2021}
\citation{zong_information_2021}
\abx@aux@cite{0}{zong_information_2021}
\abx@aux@segm{0}{0}{zong_information_2021}
\abx@aux@page{14}{9}
\@writefile{toc}{\contentsline {section}{\numberline {2.1}NER as a Sequence Labeling Task}{9}{section.2.1}\protected@file@percent }
\abx@aux@page{15}{9}
\abx@aux@page{16}{9}
\abx@aux@page{17}{9}
\@writefile{toc}{\contentsline {section}{\numberline {2.2}Standard Named Entity Types}{9}{section.2.2}\protected@file@percent }
\citation{aggarwal_machine_2018}
\abx@aux@cite{0}{aggarwal_machine_2018}
\abx@aux@segm{0}{0}{aggarwal_machine_2018}
\citation{ramshaw-marcus-1995-text}
\abx@aux@cite{0}{ramshaw-marcus-1995-text}
\abx@aux@segm{0}{0}{ramshaw-marcus-1995-text}
\citation{zong_information_2021}
\abx@aux@cite{0}{zong_information_2021}
\abx@aux@segm{0}{0}{zong_information_2021}
\citation{vajjala_practical_2020}
\abx@aux@cite{0}{vajjala_practical_2020}
\abx@aux@segm{0}{0}{vajjala_practical_2020}
\abx@aux@page{18}{10}
\abx@aux@page{19}{10}
\@writefile{toc}{\contentsline {section}{\numberline {2.3}The BIO Tagging Scheme}{10}{section.2.3}\protected@file@percent }
\newlabel{bio_tagging}{{2.3}{10}{The BIO Tagging Scheme}{section.2.3}{}}
\abx@aux@page{20}{10}
\abx@aux@page{21}{10}
\@writefile{toc}{\contentsline {section}{\numberline {2.4}Evaluation of NER Systems}{10}{section.2.4}\protected@file@percent }
\newlabel{evaluation_metrics}{{2.4}{10}{Evaluation of NER Systems}{section.2.4}{}}
\citation{jurafsky_2021}
\abx@aux@cite{0}{jurafsky_2021}
\abx@aux@segm{0}{0}{jurafsky_2021}
\citation{zong_information_2021}
\abx@aux@cite{0}{zong_information_2021}
\abx@aux@segm{0}{0}{zong_information_2021}
\citation{zong_information_2021}
\abx@aux@cite{0}{zong_information_2021}
\abx@aux@segm{0}{0}{zong_information_2021}
\citation{zong_information_2021}
\abx@aux@cite{0}{zong_information_2021}
\abx@aux@segm{0}{0}{zong_information_2021}
\abx@aux@page{22}{11}
\abx@aux@page{23}{11}
\abx@aux@page{24}{11}
\@writefile{toc}{\contentsline {subsection}{\numberline {2.4.1}F1, Precision, and Recall}{11}{subsection.2.4.1}\protected@file@percent }
\abx@aux@page{25}{11}
\citation{zong_information_2021}
\abx@aux@cite{0}{zong_information_2021}
\abx@aux@segm{0}{0}{zong_information_2021}
\citation{jurafsky_2021}
\abx@aux@cite{0}{jurafsky_2021}
\abx@aux@segm{0}{0}{jurafsky_2021}
\citation{yadav_survey_2019}
\abx@aux@cite{0}{yadav_survey_2019}
\abx@aux@segm{0}{0}{yadav_survey_2019}
\citation{yadav_survey_2019}
\abx@aux@cite{0}{yadav_survey_2019}
\abx@aux@segm{0}{0}{yadav_survey_2019}
\citation{jurafsky_2021}
\abx@aux@cite{0}{jurafsky_2021}
\abx@aux@segm{0}{0}{jurafsky_2021}
\abx@aux@page{26}{12}
\abx@aux@page{27}{12}
\abx@aux@page{28}{12}
\abx@aux@page{29}{12}
\abx@aux@page{30}{12}
\@writefile{toc}{\contentsline {subsection}{\numberline {2.4.2}Accuracy}{12}{subsection.2.4.2}\protected@file@percent }
\citation{aggarwal_machine_2018}
\abx@aux@cite{0}{aggarwal_machine_2018}
\abx@aux@segm{0}{0}{aggarwal_machine_2018}
\citation{vajjala_practical_2020}
\abx@aux@cite{0}{vajjala_practical_2020}
\abx@aux@segm{0}{0}{vajjala_practical_2020}
\citation{aggarwal_machine_2018}
\abx@aux@cite{0}{aggarwal_machine_2018}
\abx@aux@segm{0}{0}{aggarwal_machine_2018}
\citation{aggarwal_machine_2018}
\abx@aux@cite{0}{aggarwal_machine_2018}
\abx@aux@segm{0}{0}{aggarwal_machine_2018}
\citation{benikova-etal-2014-nosta}
\abx@aux@cite{0}{benikova-etal-2014-nosta}
\abx@aux@segm{0}{0}{benikova-etal-2014-nosta}
\abx@aux@page{31}{13}
\@writefile{toc}{\contentsline {section}{\numberline {2.5}General Challenges for NER}{13}{section.2.5}\protected@file@percent }
\abx@aux@page{32}{13}
\abx@aux@page{33}{13}
\abx@aux@page{34}{13}
\abx@aux@page{35}{13}
\citation{vajjala_practical_2020}
\abx@aux@cite{0}{vajjala_practical_2020}
\abx@aux@segm{0}{0}{vajjala_practical_2020}
\citation{singh_natural_2008}
\abx@aux@cite{0}{singh_natural_2008}
\abx@aux@segm{0}{0}{singh_natural_2008}
\citation{magueresse_low-resource_2020}
\abx@aux@cite{0}{magueresse_low-resource_2020}
\abx@aux@segm{0}{0}{magueresse_low-resource_2020}
\citation{ritter_2011}
\abx@aux@cite{0}{ritter_2011}
\abx@aux@segm{0}{0}{ritter_2011}
\citation{ritter_2011}
\abx@aux@cite{0}{ritter_2011}
\abx@aux@segm{0}{0}{ritter_2011}
\citation{ritter_2011}
\abx@aux@cite{0}{ritter_2011}
\abx@aux@segm{0}{0}{ritter_2011}
\abx@aux@page{36}{14}
\abx@aux@page{37}{14}
\abx@aux@page{38}{14}
\abx@aux@page{39}{14}
\@writefile{toc}{\contentsline {section}{\numberline {2.6}Challenges for NER in User-Generated Texts}{14}{section.2.6}\protected@file@percent }
\newlabel{sec:challenges_user_generated_texts}{{2.6}{14}{Challenges for NER in User-Generated Texts}{section.2.6}{}}
\abx@aux@page{40}{14}
\citation{ritter_2011}
\abx@aux@cite{0}{ritter_2011}
\abx@aux@segm{0}{0}{ritter_2011}
\citation{ritter_2011}
\abx@aux@cite{0}{ritter_2011}
\abx@aux@segm{0}{0}{ritter_2011}
\citation{ritter_2011}
\abx@aux@cite{0}{ritter_2011}
\abx@aux@segm{0}{0}{ritter_2011}
\citation{ritter_2011}
\abx@aux@cite{0}{ritter_2011}
\abx@aux@segm{0}{0}{ritter_2011}
\citation{ritter_2011}
\abx@aux@cite{0}{ritter_2011}
\abx@aux@segm{0}{0}{ritter_2011}
\citation{ritter_2011}
\abx@aux@cite{0}{ritter_2011}
\abx@aux@segm{0}{0}{ritter_2011}
\abx@aux@page{41}{15}
\abx@aux@page{42}{15}
\@writefile{lof}{\contentsline {figure}{\numberline {2.1}{\ignorespaces Examples of noisy text in tweets, taken from \blx@tocontentsinit {0}\cite {ritter_2011}\relax }}{15}{figure.caption.5}\protected@file@percent }
\providecommand*\caption@xref[2]{\@setref\relax\@undefined{#1}}
\newlabel{fig:noisy_texts}{{2.1}{15}{Examples of noisy text in tweets, taken from \cite {ritter_2011}\relax }{figure.caption.5}{}}
\@writefile{lof}{\contentsline {figure}{\numberline {2.2}{\ignorespaces Lexical variations of the word `tomorrow' in tweets, taken from \blx@tocontentsinit {0}\cite {ritter_2011}\relax }}{15}{figure.caption.5}\protected@file@percent }
\newlabel{fig:lex_var}{{2.2}{15}{Lexical variations of the word `tomorrow' in tweets, taken from \cite {ritter_2011}\relax }{figure.caption.5}{}}
\abx@aux@page{48}{16}
\citation{tangherlini_automated_2020}
\abx@aux@cite{0}{tangherlini_automated_2020}
\abx@aux@segm{0}{0}{tangherlini_automated_2020}
\citation{shahsavari_conspiracy_2020}
\abx@aux@cite{0}{shahsavari_conspiracy_2020}
\abx@aux@segm{0}{0}{shahsavari_conspiracy_2020}
\citation{schweter2020flert}
\abx@aux@cite{0}{schweter2020flert}
\abx@aux@segm{0}{0}{schweter2020flert}
\citation{tjong_kim_sang_introduction_2003}
\abx@aux@cite{0}{tjong_kim_sang_introduction_2003}
\abx@aux@segm{0}{0}{tjong_kim_sang_introduction_2003}
\@writefile{toc}{\contentsline {chapter}{\numberline {3}Related Work}{17}{chapter.3}\protected@file@percent }
\@writefile{lof}{\addvspace {10\p@ }}
\@writefile{lot}{\addvspace {10\p@ }}
\newlabel{cha:related_work}{{3}{17}{Related Work}{chapter.3}{}}
\abx@aux@page{49}{17}
\abx@aux@page{50}{17}
\@writefile{toc}{\contentsline {section}{\numberline {3.1}Shared Tasks on German-Language NER}{17}{section.3.1}\protected@file@percent }
\citation{benikova-etal-2014-nosta}
\abx@aux@cite{0}{benikova-etal-2014-nosta}
\abx@aux@segm{0}{0}{benikova-etal-2014-nosta}
\citation{ritter_2011}
\abx@aux@cite{0}{ritter_2011}
\abx@aux@segm{0}{0}{ritter_2011}
\citation{ritter_2011}
\abx@aux@cite{0}{ritter_2011}
\abx@aux@segm{0}{0}{ritter_2011}
\citation{ritter_2011}
\abx@aux@cite{0}{ritter_2011}
\abx@aux@segm{0}{0}{ritter_2011}
\abx@aux@page{52}{18}
\abx@aux@page{53}{18}
\@writefile{toc}{\contentsline {section}{\numberline {3.2}Experimental Studies and Shared Tasks on Social Media NER}{18}{section.3.2}\protected@file@percent }
\newlabel{sec:shared_tasks_sm}{{3.2}{18}{Experimental Studies and Shared Tasks on Social Media NER}{section.3.2}{}}
\abx@aux@fnpage{51}{18}
\citation{derczynski_analysis_2015}
\abx@aux@cite{0}{derczynski_analysis_2015}
\abx@aux@segm{0}{0}{derczynski_analysis_2015}
\citation{ritter_2011}
\abx@aux@cite{0}{ritter_2011}
\abx@aux@segm{0}{0}{ritter_2011}
\citation{derczynski_analysis_2015}
\abx@aux@cite{0}{derczynski_analysis_2015}
\abx@aux@segm{0}{0}{derczynski_analysis_2015}
\citation{ritter_2011}
\abx@aux@cite{0}{ritter_2011}
\abx@aux@segm{0}{0}{ritter_2011}
\citation{baldwin_shared_2015}
\abx@aux@cite{0}{baldwin_shared_2015}
\abx@aux@segm{0}{0}{baldwin_shared_2015}
\citation{baldwin_shared_2015}
\abx@aux@cite{0}{baldwin_shared_2015}
\abx@aux@segm{0}{0}{baldwin_shared_2015}
\citation{benikova2014germeval}
\abx@aux@cite{0}{benikova2014germeval}
\abx@aux@segm{0}{0}{benikova2014germeval}
\citation{strauss_results_2016}
\abx@aux@cite{0}{strauss_results_2016}
\abx@aux@segm{0}{0}{strauss_results_2016}
\citation{derczynski_results_2017}
\abx@aux@cite{0}{derczynski_results_2017}
\abx@aux@segm{0}{0}{derczynski_results_2017}
\citation{bhoi_2017}
\abx@aux@cite{0}{bhoi_2017}
\abx@aux@segm{0}{0}{bhoi_2017}
\citation{bhoi_2017}
\abx@aux@cite{0}{bhoi_2017}
\abx@aux@segm{0}{0}{bhoi_2017}
\citation{bhoi_2017}
\abx@aux@cite{0}{bhoi_2017}
\abx@aux@segm{0}{0}{bhoi_2017}
\abx@aux@page{56}{19}
\abx@aux@page{59}{19}
\abx@aux@page{60}{19}
\abx@aux@page{62}{19}
\abx@aux@page{63}{19}
\abx@aux@page{64}{19}
\abx@aux@page{65}{19}
\abx@aux@fnpage{55}{19}
\citation{derczynski-etal-2016-broad}
\abx@aux@cite{0}{derczynski-etal-2016-broad}
\abx@aux@segm{0}{0}{derczynski-etal-2016-broad}
\abx@aux@page{67}{20}
\abx@aux@page{68}{20}
\abx@aux@page{69}{20}
\citation{yadav_survey_2019}
\abx@aux@cite{0}{yadav_survey_2019}
\abx@aux@segm{0}{0}{yadav_survey_2019}
\citation{vaswani_2017}
\abx@aux@cite{0}{vaswani_2017}
\abx@aux@segm{0}{0}{vaswani_2017}
\citation{vaswani_2017}
\abx@aux@cite{0}{vaswani_2017}
\abx@aux@segm{0}{0}{vaswani_2017}
\citation{tunstall_natural_2022}
\abx@aux@cite{0}{tunstall_natural_2022}
\abx@aux@segm{0}{0}{tunstall_natural_2022}
\@writefile{toc}{\contentsline {chapter}{\numberline {4}State of the Art NER with Transformer Models}{21}{chapter.4}\protected@file@percent }
\@writefile{lof}{\addvspace {10\p@ }}
\@writefile{lot}{\addvspace {10\p@ }}
\newlabel{cha:ner_approaches}{{4}{21}{State of the Art NER with Transformer Models}{chapter.4}{}}
\abx@aux@page{70}{21}
\abx@aux@page{72}{21}
\abx@aux@page{73}{21}
\citation{vajjala_practical_2020}
\abx@aux@cite{0}{vajjala_practical_2020}
\abx@aux@segm{0}{0}{vajjala_practical_2020}
\citation{jurafsky_2021}
\abx@aux@cite{0}{jurafsky_2021}
\abx@aux@segm{0}{0}{jurafsky_2021}
\citation{jurafsky_2021}
\abx@aux@cite{0}{jurafsky_2021}
\abx@aux@segm{0}{0}{jurafsky_2021}
\citation{jurafsky_2021}
\abx@aux@cite{0}{jurafsky_2021}
\abx@aux@segm{0}{0}{jurafsky_2021}
\citation{devlin_2018}
\abx@aux@cite{0}{devlin_2018}
\abx@aux@segm{0}{0}{devlin_2018}
\citation{jurafsky_2021}
\abx@aux@cite{0}{jurafsky_2021}
\abx@aux@segm{0}{0}{jurafsky_2021}
\citation{jurafsky_2021}
\abx@aux@cite{0}{jurafsky_2021}
\abx@aux@segm{0}{0}{jurafsky_2021}
\@writefile{toc}{\contentsline {section}{\numberline {4.1}Self-Attention}{22}{section.4.1}\protected@file@percent }
\abx@aux@page{74}{22}
\abx@aux@page{75}{22}
\abx@aux@page{76}{22}
\abx@aux@page{77}{22}
\abx@aux@page{78}{22}
\abx@aux@page{79}{22}
\@writefile{toc}{\contentsline {section}{\numberline {4.2}Key, Query, and Values}{22}{section.4.2}\protected@file@percent }
\abx@aux@page{80}{22}
\citation{jurafsky_2021}
\abx@aux@cite{0}{jurafsky_2021}
\abx@aux@segm{0}{0}{jurafsky_2021}
\citation{jurafsky_2021}
\abx@aux@cite{0}{jurafsky_2021}
\abx@aux@segm{0}{0}{jurafsky_2021}
\citation{jurafsky_2021}
\abx@aux@cite{0}{jurafsky_2021}
\abx@aux@segm{0}{0}{jurafsky_2021}
\@writefile{lof}{\contentsline {figure}{\numberline {4.1}{\ignorespaces Transformers: Key, query, value implementation in left-to-right attention, taken from \blx@tocontentsinit {0}\cite [194]{jurafsky_2021}\relax }}{23}{figure.caption.6}\protected@file@percent }
\newlabel{fig:self_attention}{{4.1}{23}{Transformers: Key, query, value implementation in left-to-right attention, taken from \cite [194]{jurafsky_2021}\relax }{figure.caption.6}{}}
\citation{jurafsky_2021}
\abx@aux@cite{0}{jurafsky_2021}
\abx@aux@segm{0}{0}{jurafsky_2021}
\citation{jurafsky_2021}
\abx@aux@cite{0}{jurafsky_2021}
\abx@aux@segm{0}{0}{jurafsky_2021}
\citation{jurafsky_2021}
\abx@aux@cite{0}{jurafsky_2021}
\abx@aux@segm{0}{0}{jurafsky_2021}
\citation{jurafsky_2021}
\abx@aux@cite{0}{jurafsky_2021}
\abx@aux@segm{0}{0}{jurafsky_2021}
\@writefile{toc}{\contentsline {section}{\numberline {4.3}Multi-Head Attention}{24}{section.4.3}\protected@file@percent }
\abx@aux@page{83}{24}
\@writefile{toc}{\contentsline {section}{\numberline {4.4}Transformer Blocks}{24}{section.4.4}\protected@file@percent }
\abx@aux@page{84}{24}
\abx@aux@page{85}{24}
\@writefile{toc}{\contentsline {section}{\numberline {4.5}Limited Input Length}{24}{section.4.5}\protected@file@percent }
\abx@aux@page{86}{24}
\citation{vaswani_2017}
\abx@aux@cite{0}{vaswani_2017}
\abx@aux@segm{0}{0}{vaswani_2017}
\citation{vaswani_2017}
\abx@aux@cite{0}{vaswani_2017}
\abx@aux@segm{0}{0}{vaswani_2017}
\citation{vaswani_2017}
\abx@aux@cite{0}{vaswani_2017}
\abx@aux@segm{0}{0}{vaswani_2017}
\@writefile{toc}{\contentsline {section}{\numberline {4.6}Positional Embeddings}{25}{section.4.6}\protected@file@percent }
\abx@aux@page{87}{25}
\abx@aux@page{88}{25}
\@writefile{lof}{\contentsline {figure}{\numberline {4.2}{\ignorespaces Transformer model architecture as introduced by \blx@tocontentsinit {0}\cite {vaswani_2017}\relax }}{25}{figure.caption.7}\protected@file@percent }
\newlabel{fig:transf_arch}{{4.2}{25}{Transformer model architecture as introduced by \cite {vaswani_2017}\relax }{figure.caption.7}{}}
\citation{tunstall_natural_2022}
\abx@aux@cite{0}{tunstall_natural_2022}
\abx@aux@segm{0}{0}{tunstall_natural_2022}
\citation{tunstall_natural_2022}
\abx@aux@cite{0}{tunstall_natural_2022}
\abx@aux@segm{0}{0}{tunstall_natural_2022}
\citation{tunstall_natural_2022}
\abx@aux@cite{0}{tunstall_natural_2022}
\abx@aux@segm{0}{0}{tunstall_natural_2022}
\citation{tunstall_natural_2022}
\abx@aux@cite{0}{tunstall_natural_2022}
\abx@aux@segm{0}{0}{tunstall_natural_2022}
\@writefile{toc}{\contentsline {section}{\numberline {4.7}Model Architectures}{26}{section.4.7}\protected@file@percent }
\abx@aux@page{91}{26}
\abx@aux@page{92}{26}
\abx@aux@page{93}{26}
\@writefile{toc}{\contentsline {section}{\numberline {4.8}Pre-Training and Fine-Tuning of Transformer Models}{26}{section.4.8}\protected@file@percent }
\abx@aux@page{94}{26}
\@writefile{toc}{\contentsline {chapter}{\numberline {5}SpaCy and Flair: A Qualitative Exploration of Existing Solutions}{27}{chapter.5}\protected@file@percent }
\@writefile{lof}{\addvspace {10\p@ }}
\@writefile{lot}{\addvspace {10\p@ }}
\newlabel{cha:exploration}{{5}{27}{SpaCy and Flair: A Qualitative Exploration of Existing Solutions}{chapter.5}{}}
\citation{spacy_facts}
\abx@aux@cite{0}{spacy_facts}
\abx@aux@segm{0}{0}{spacy_facts}
\citation{spacy_german_md}
\abx@aux@cite{0}{spacy_german_md}
\abx@aux@segm{0}{0}{spacy_german_md}
\citation{spacy_entity_recognizer}
\abx@aux@cite{0}{spacy_entity_recognizer}
\abx@aux@segm{0}{0}{spacy_entity_recognizer}
\citation{spacy_transition_based_parser}
\abx@aux@cite{0}{spacy_transition_based_parser}
\abx@aux@segm{0}{0}{spacy_transition_based_parser}
\@writefile{toc}{\contentsline {section}{\numberline {5.1}Example Data}{28}{section.5.1}\protected@file@percent }
\@writefile{toc}{\contentsline {section}{\numberline {5.2}German-language NER with spaCy and Flair}{28}{section.5.2}\protected@file@percent }
\@writefile{toc}{\contentsline {subsection}{\numberline {5.2.1}The German-language spaCy model}{28}{subsection.5.2.1}\protected@file@percent }
\abx@aux@page{95}{28}
\abx@aux@page{96}{28}
\citation{nothman_learning_2013}
\abx@aux@cite{0}{nothman_learning_2013}
\abx@aux@segm{0}{0}{nothman_learning_2013}
\citation{spacy_german_md}
\abx@aux@cite{0}{spacy_german_md}
\abx@aux@segm{0}{0}{spacy_german_md}
\citation{akbik2019flair}
\abx@aux@cite{0}{akbik2019flair}
\abx@aux@segm{0}{0}{akbik2019flair}
\citation{akbik2019flair}
\abx@aux@cite{0}{akbik2019flair}
\abx@aux@segm{0}{0}{akbik2019flair}
\citation{pennington2014glove}
\abx@aux@cite{0}{pennington2014glove}
\abx@aux@segm{0}{0}{pennington2014glove}
\citation{akbik2018coling}
\abx@aux@cite{0}{akbik2018coling}
\abx@aux@segm{0}{0}{akbik2018coling}
\citation{akbik2018coling}
\abx@aux@cite{0}{akbik2018coling}
\abx@aux@segm{0}{0}{akbik2018coling}
\citation{akbik2018coling}
\abx@aux@cite{0}{akbik2018coling}
\abx@aux@segm{0}{0}{akbik2018coling}
\citation{akbik2018coling}
\abx@aux@cite{0}{akbik2018coling}
\abx@aux@segm{0}{0}{akbik2018coling}
\citation{flair_ner_german_standard_model}
\abx@aux@cite{0}{flair_ner_german_standard_model}
\abx@aux@segm{0}{0}{flair_ner_german_standard_model}
\abx@aux@page{97}{29}
\abx@aux@page{98}{29}
\abx@aux@page{99}{29}
\abx@aux@page{100}{29}
\@writefile{toc}{\contentsline {subsection}{\numberline {5.2.2}The German-language Flair Model}{29}{subsection.5.2.2}\protected@file@percent }
\newlabel{sec:flair_de}{{5.2.2}{29}{The German-language Flair Model}{subsection.5.2.2}{}}
\abx@aux@page{101}{29}
\abx@aux@page{102}{29}
\abx@aux@page{103}{29}
\abx@aux@page{104}{29}
\abx@aux@page{105}{29}
\abx@aux@page{106}{29}
\abx@aux@page{107}{29}
\abx@aux@page{108}{29}
\@writefile{toc}{\contentsline {subsection}{\numberline {5.2.3}Results}{30}{subsection.5.2.3}\protected@file@percent }
\@writefile{lot}{\contentsline {table}{\numberline {5.1}{\ignorespaces spaCy vs. Flair: Detected entities for German-language example messages\relax }}{31}{table.caption.8}\protected@file@percent }
\newlabel{tab:detect_ents_de}{{5.1}{31}{spaCy vs. Flair: Detected entities for German-language example messages\relax }{table.caption.8}{}}
\citation{ontonotes5}
\abx@aux@cite{0}{ontonotes5}
\abx@aux@segm{0}{0}{ontonotes5}
\citation{flair_ner}
\abx@aux@cite{0}{flair_ner}
\abx@aux@segm{0}{0}{flair_ner}
\@writefile{toc}{\contentsline {section}{\numberline {5.3}Exploring the Potentials of Machine Translation for NER}{32}{section.5.3}\protected@file@percent }
\@writefile{toc}{\contentsline {subsection}{\numberline {5.3.1}The English-language spaCy Model}{32}{subsection.5.3.1}\protected@file@percent }
\abx@aux@page{109}{32}
\@writefile{toc}{\contentsline {subsection}{\numberline {5.3.2}The English-language Flair Model}{32}{subsection.5.3.2}\protected@file@percent }
\abx@aux@page{110}{32}
\@writefile{toc}{\contentsline {subsection}{\numberline {5.3.3}Results}{33}{subsection.5.3.3}\protected@file@percent }
\@writefile{lot}{\contentsline {table}{\numberline {5.2}{\ignorespaces spacy vs. Flair: Detected entities for English-language example messages\relax }}{34}{table.caption.9}\protected@file@percent }
\newlabel{tab:detect_ents_en}{{5.2}{34}{spacy vs. Flair: Detected entities for English-language example messages\relax }{table.caption.9}{}}
\@writefile{toc}{\contentsline {section}{\numberline {5.4}Summarization}{35}{section.5.4}\protected@file@percent }
\@writefile{toc}{\contentsline {chapter}{\numberline {6}Building a Custom Model for NER in Telegram Channels}{36}{chapter.6}\protected@file@percent }
\@writefile{lof}{\addvspace {10\p@ }}
\@writefile{lot}{\addvspace {10\p@ }}
\newlabel{cha:implementation}{{6}{36}{Building a Custom Model for NER in Telegram Channels}{chapter.6}{}}
\@writefile{toc}{\contentsline {section}{\numberline {6.1}Building the Telegram Corpus}{36}{section.6.1}\protected@file@percent }
\newlabel{sec:telegram_data}{{6.1}{36}{Building the Telegram Corpus}{section.6.1}{}}
\@writefile{toc}{\contentsline {subsection}{\numberline {6.1.1}Raw Data}{37}{subsection.6.1.1}\protected@file@percent }
\@writefile{lof}{\contentsline {figure}{\numberline {6.1}{\ignorespaces Message frequencies in Telegram channel `Demotermine'\relax }}{37}{figure.caption.10}\protected@file@percent }
\newlabel{fig:message_count}{{6.1}{37}{Message frequencies in Telegram channel `Demotermine'\relax }{figure.caption.10}{}}
\@writefile{toc}{\contentsline {subsection}{\numberline {6.1.2}Text Cleaning}{37}{subsection.6.1.2}\protected@file@percent }
\@writefile{toc}{\contentsline {subsection}{\numberline {6.1.3}Sample Selection}{38}{subsection.6.1.3}\protected@file@percent }
\@writefile{toc}{\contentsline {subsection}{\numberline {6.1.4}Annotation}{39}{subsection.6.1.4}\protected@file@percent }
\citation{benikova2014germeval}
\abx@aux@cite{0}{benikova2014germeval}
\abx@aux@segm{0}{0}{benikova2014germeval}
\citation{schiersch_2018}
\abx@aux@cite{0}{schiersch_2018}
\abx@aux@segm{0}{0}{schiersch_2018}
\citation{schiersch_2018}
\abx@aux@cite{0}{schiersch_2018}
\abx@aux@segm{0}{0}{schiersch_2018}
\@writefile{toc}{\contentsline {subsection}{\numberline {6.1.5}Telegram Corpus Statistics}{40}{subsection.6.1.5}\protected@file@percent }
\@writefile{lot}{\contentsline {table}{\numberline {6.1}{\ignorespaces Distribution of entities in Telegram corpus\relax }}{40}{table.caption.11}\protected@file@percent }
\newlabel{tab:tg_corpus_stats}{{6.1}{40}{Distribution of entities in Telegram corpus\relax }{table.caption.11}{}}
\@writefile{toc}{\contentsline {section}{\numberline {6.2}The DFKI Smartdata Corpus}{40}{section.6.2}\protected@file@percent }
\abx@aux@page{111}{40}
\abx@aux@page{112}{40}
\abx@aux@page{113}{40}
\@writefile{toc}{\contentsline {subsection}{\numberline {6.2.1}Label Mapping}{41}{subsection.6.2.1}\protected@file@percent }
\@writefile{toc}{\contentsline {subsection}{\numberline {6.2.2}Adjusted Smartdata Corpus Statistics}{41}{subsection.6.2.2}\protected@file@percent }
\citation{devlin_2018}
\abx@aux@cite{0}{devlin_2018}
\abx@aux@segm{0}{0}{devlin_2018}
\@writefile{lot}{\contentsline {table}{\numberline {6.2}{\ignorespaces Distribution of entities in Smartdata corpus after label mapping\relax }}{42}{table.caption.12}\protected@file@percent }
\newlabel{tab:sm_corpus_stats}{{6.2}{42}{Distribution of entities in Smartdata corpus after label mapping\relax }{table.caption.12}{}}
\@writefile{toc}{\contentsline {section}{\numberline {6.3}The Final Corpus}{42}{section.6.3}\protected@file@percent }
\newlabel{sec:final_corpus}{{6.3}{42}{The Final Corpus}{section.6.3}{}}
\@writefile{lot}{\contentsline {table}{\numberline {6.3}{\ignorespaces Distribution of entities in the final corpus\relax }}{42}{table.caption.13}\protected@file@percent }
\newlabel{tab:final_corpus_stats}{{6.3}{42}{Distribution of entities in the final corpus\relax }{table.caption.13}{}}
\@writefile{toc}{\contentsline {section}{\numberline {6.4}Models}{42}{section.6.4}\protected@file@percent }
\@writefile{toc}{\contentsline {subsection}{\numberline {6.4.1}BERT Models}{42}{subsection.6.4.1}\protected@file@percent }
\abx@aux@page{114}{42}
\citation{bert_german_2020}
\abx@aux@cite{0}{bert_german_2020}
\abx@aux@segm{0}{0}{bert_german_2020}
\citation{bert_german_2020}
\abx@aux@cite{0}{bert_german_2020}
\abx@aux@segm{0}{0}{bert_german_2020}
\citation{tunstall_natural_2022}
\abx@aux@cite{0}{tunstall_natural_2022}
\abx@aux@segm{0}{0}{tunstall_natural_2022}
\@writefile{toc}{\contentsline {subsubsection}{dbmdz/bert-base-german-uncased}{43}{section*.14}\protected@file@percent }
\@writefile{toc}{\contentsline {subsubsection}{deepset/gbert-base}{43}{section*.15}\protected@file@percent }
\abx@aux@page{115}{43}
\abx@aux@page{116}{43}
\@writefile{toc}{\contentsline {subsection}{\numberline {6.4.2}DistilBERT Model}{43}{subsection.6.4.2}\protected@file@percent }
\abx@aux@page{117}{43}
\@writefile{toc}{\contentsline {subsubsection}{distilbert-base-multilingual-cased}{43}{section*.16}\protected@file@percent }
\citation{tunstall_natural_2022}
\abx@aux@cite{0}{tunstall_natural_2022}
\abx@aux@segm{0}{0}{tunstall_natural_2022}
\citation{tunstall_natural_2022}
\abx@aux@cite{0}{tunstall_natural_2022}
\abx@aux@segm{0}{0}{tunstall_natural_2022}
\citation{tunstall_natural_2022}
\abx@aux@cite{0}{tunstall_natural_2022}
\abx@aux@segm{0}{0}{tunstall_natural_2022}
\citation{xlm_roberta}
\abx@aux@cite{0}{xlm_roberta}
\abx@aux@segm{0}{0}{xlm_roberta}
\citation{xlm_roberta}
\abx@aux@cite{0}{xlm_roberta}
\abx@aux@segm{0}{0}{xlm_roberta}
\citation{xlm_roberta_twitter}
\abx@aux@cite{0}{xlm_roberta_twitter}
\abx@aux@segm{0}{0}{xlm_roberta_twitter}
\citation{xlm_roberta_twitter}
\abx@aux@cite{0}{xlm_roberta_twitter}
\abx@aux@segm{0}{0}{xlm_roberta_twitter}
\@writefile{toc}{\contentsline {subsection}{\numberline {6.4.3}XLM-Roberta Models}{44}{subsection.6.4.3}\protected@file@percent }
\abx@aux@page{118}{44}
\abx@aux@page{119}{44}
\abx@aux@page{120}{44}
\@writefile{toc}{\contentsline {subsubsection}{xlm-roberta-base}{44}{section*.17}\protected@file@percent }
\abx@aux@page{121}{44}
\abx@aux@page{122}{44}
\@writefile{toc}{\contentsline {subsubsection}{cardiffnlp/twitter-xlm-roberta-base}{44}{section*.18}\protected@file@percent }
\abx@aux@page{123}{44}
\abx@aux@page{124}{44}
\citation{tunstall_natural_2022}
\abx@aux@cite{0}{tunstall_natural_2022}
\abx@aux@segm{0}{0}{tunstall_natural_2022}
\citation{tunstall_natural_2022}
\abx@aux@cite{0}{tunstall_natural_2022}
\abx@aux@segm{0}{0}{tunstall_natural_2022}
\@writefile{toc}{\contentsline {section}{\numberline {6.5}Experimental setup}{45}{section.6.5}\protected@file@percent }
\@writefile{toc}{\contentsline {section}{\numberline {6.6}Defining a Baseline}{45}{section.6.6}\protected@file@percent }
\newlabel{baseline}{{6.6}{45}{Defining a Baseline}{section.6.6}{}}
\@writefile{toc}{\contentsline {section}{\numberline {6.7}Fine-tuning an NER model}{45}{section.6.7}\protected@file@percent }
\abx@aux@page{125}{45}
\citation{tunstall_natural_2022}
\abx@aux@cite{0}{tunstall_natural_2022}
\abx@aux@segm{0}{0}{tunstall_natural_2022}
\citation{huggingface_tokenizers}
\abx@aux@cite{0}{huggingface_tokenizers}
\abx@aux@segm{0}{0}{huggingface_tokenizers}
\citation{tunstall_natural_2022}
\abx@aux@cite{0}{tunstall_natural_2022}
\abx@aux@segm{0}{0}{tunstall_natural_2022}
\citation{tunstall_natural_2022}
\abx@aux@cite{0}{tunstall_natural_2022}
\abx@aux@segm{0}{0}{tunstall_natural_2022}
\@writefile{toc}{\contentsline {subsection}{\numberline {6.7.1}Preprocessing: Tokenization and Encoding}{46}{subsection.6.7.1}\protected@file@percent }
\newlabel{sec:tokenization_and_encoding}{{6.7.1}{46}{Preprocessing: Tokenization and Encoding}{subsection.6.7.1}{}}
\abx@aux@page{126}{46}
\abx@aux@page{127}{46}
\abx@aux@page{128}{46}
\@writefile{toc}{\contentsline {subsubsection}{Label alignment for tokenized inputs}{46}{section*.19}\protected@file@percent }
\abx@aux@page{130}{46}
\citation{huggingface_attention_mask}
\abx@aux@cite{0}{huggingface_attention_mask}
\abx@aux@segm{0}{0}{huggingface_attention_mask}
\citation{huggingface_token_type_ids}
\abx@aux@cite{0}{huggingface_token_type_ids}
\abx@aux@segm{0}{0}{huggingface_token_type_ids}
\abx@aux@page{131}{47}
\abx@aux@page{132}{47}
\@writefile{lof}{\contentsline {figure}{\numberline {6.2}{\ignorespaces Training data after tokenization and encoding\relax }}{47}{figure.caption.20}\protected@file@percent }
\newlabel{fig:encoded_ds}{{6.2}{47}{Training data after tokenization and encoding\relax }{figure.caption.20}{}}
\@writefile{toc}{\contentsline {subsection}{\numberline {6.7.2}Loading and Configuring a Model}{47}{subsection.6.7.2}\protected@file@percent }
\@writefile{toc}{\contentsline {subsection}{\numberline {6.7.3}Defining Training Arguments}{48}{subsection.6.7.3}\protected@file@percent }
\@writefile{toc}{\contentsline {subsubsection}{Data Collator}{48}{section*.21}\protected@file@percent }
\@writefile{toc}{\contentsline {subsection}{\numberline {6.7.4}Evaluation Metrics}{49}{subsection.6.7.4}\protected@file@percent }
\@writefile{toc}{\contentsline {subsection}{\numberline {6.7.5}Training}{49}{subsection.6.7.5}\protected@file@percent }
\@writefile{toc}{\contentsline {section}{\numberline {6.8}Evaluation Results}{49}{section.6.8}\protected@file@percent }
\@writefile{lot}{\contentsline {table}{\numberline {6.4}{\ignorespaces Fine-tuning different models on Telegram corpus\relax }}{50}{table.caption.22}\protected@file@percent }
\newlabel{tab:experiments_tg}{{6.4}{50}{Fine-tuning different models on Telegram corpus\relax }{table.caption.22}{}}
\@writefile{lot}{\contentsline {table}{\numberline {6.5}{\ignorespaces Fine-tuning different models on adjusted Smartdata corpus\relax }}{50}{table.caption.23}\protected@file@percent }
\newlabel{tab:experiments_sm}{{6.5}{50}{Fine-tuning different models on adjusted Smartdata corpus\relax }{table.caption.23}{}}
\@writefile{lot}{\contentsline {table}{\numberline {6.6}{\ignorespaces Fine-tuning different models on combined corpus\relax }}{51}{table.caption.24}\protected@file@percent }
\newlabel{tab:experiments_sm_tg}{{6.6}{51}{Fine-tuning different models on combined corpus\relax }{table.caption.24}{}}
\@writefile{lot}{\contentsline {table}{\numberline {6.7}{\ignorespaces Detailed metrics for two best models\relax }}{51}{table.caption.25}\protected@file@percent }
\newlabel{tab:best_models_metrics}{{6.7}{51}{Detailed metrics for two best models\relax }{table.caption.25}{}}
\@writefile{toc}{\contentsline {section}{\numberline {6.9}Error Analysis}{51}{section.6.9}\protected@file@percent }
\@writefile{toc}{\contentsline {subsubsection}{Token-level Errors}{51}{section*.26}\protected@file@percent }
\@writefile{lof}{\contentsline {figure}{\numberline {6.3}{\ignorespaces Fine-tuned \textit  {deepset/gbert-base}: Tokens with highest total loss\relax }}{52}{figure.caption.27}\protected@file@percent }
\newlabel{fig:highest_loss_tokens_gbert}{{6.3}{52}{Fine-tuned \textit {deepset/gbert-base}: Tokens with highest total loss\relax }{figure.caption.27}{}}
\@writefile{toc}{\contentsline {subsubsection}{Class-level Errors}{52}{section*.28}\protected@file@percent }
\@writefile{lof}{\contentsline {figure}{\numberline {6.4}{\ignorespaces Fine-tuned \textit  {deepset/gbert-base}: Labels ranked by mean loss\relax }}{53}{figure.caption.29}\protected@file@percent }
\newlabel{fig:highest_loss_labels_gbert}{{6.4}{53}{Fine-tuned \textit {deepset/gbert-base}: Labels ranked by mean loss\relax }{figure.caption.29}{}}
\@writefile{toc}{\contentsline {subsubsection}{Confusion Matrix}{53}{section*.30}\protected@file@percent }
\@writefile{lof}{\contentsline {figure}{\numberline {6.5}{\ignorespaces Fine-tuned \textit  {deepset/gbert-base}: Confusion matrix\relax }}{54}{figure.caption.31}\protected@file@percent }
\newlabel{fig:norm_cm_gbert}{{6.5}{54}{Fine-tuned \textit {deepset/gbert-base}: Confusion matrix\relax }{figure.caption.31}{}}
\@writefile{toc}{\contentsline {section}{\numberline {6.10}Application of the Custom Model}{54}{section.6.10}\protected@file@percent }
\@writefile{toc}{\contentsline {subsection}{\numberline {6.10.1}Example Messages}{55}{subsection.6.10.1}\protected@file@percent }
\@writefile{toc}{\contentsline {subsection}{\numberline {6.10.2}Larger Sample}{55}{subsection.6.10.2}\protected@file@percent }
\@writefile{lot}{\contentsline {table}{\numberline {6.8}{\ignorespaces Flair vs. custom model: Detected entities for German-language example messages\relax }}{56}{table.caption.32}\protected@file@percent }
\newlabel{tab:detect_ents_custom_vs_flair}{{6.8}{56}{Flair vs. custom model: Detected entities for German-language example messages\relax }{table.caption.32}{}}
\@writefile{lot}{\contentsline {table}{\numberline {6.9}{\ignorespaces Custom model: Detected entities in larger sample\relax }}{57}{table.caption.33}\protected@file@percent }
\newlabel{tab:detected_ents_large_sample}{{6.9}{57}{Custom model: Detected entities in larger sample\relax }{table.caption.33}{}}
\@writefile{toc}{\contentsline {section}{\numberline {6.11}Summarization}{57}{section.6.11}\protected@file@percent }
\@writefile{lof}{\contentsline {figure}{\numberline {6.6}{\ignorespaces Custom model: Visualization of detected named entities in larger sample\relax }}{58}{figure.caption.34}\protected@file@percent }
\newlabel{fig:wc_ents}{{6.6}{58}{Custom model: Visualization of detected named entities in larger sample\relax }{figure.caption.34}{}}
\@writefile{toc}{\contentsline {chapter}{\numberline {7}Conclusion}{60}{chapter.7}\protected@file@percent }
\@writefile{lof}{\addvspace {10\p@ }}
\@writefile{lot}{\addvspace {10\p@ }}
\newlabel{cha:conclusion}{{7}{60}{Conclusion}{chapter.7}{}}
\@writefile{toc}{\contentsline {section}{\numberline {7.1}Summarization}{60}{section.7.1}\protected@file@percent }
\@writefile{toc}{\contentsline {section}{\numberline {7.2}Discussion}{62}{section.7.2}\protected@file@percent }
\@writefile{toc}{\contentsline {section}{\numberline {7.3}Future Work}{63}{section.7.3}\protected@file@percent }
\abx@aux@page{133}{65}
\abx@aux@page{134}{65}
\abx@aux@page{135}{65}
\abx@aux@page{136}{65}
\abx@aux@page{137}{65}
\abx@aux@page{138}{65}
\abx@aux@page{139}{65}
\abx@aux@page{140}{66}
\abx@aux@page{141}{66}
\abx@aux@page{142}{66}
\abx@aux@page{143}{66}
\abx@aux@page{144}{66}
\abx@aux@page{145}{66}
\abx@aux@page{146}{66}
\abx@aux@page{147}{66}
\abx@aux@page{148}{67}
\abx@aux@page{149}{67}
\abx@aux@page{150}{67}
\abx@aux@page{151}{67}
\abx@aux@page{152}{67}
\abx@aux@page{153}{67}
\abx@aux@page{154}{67}
\abx@aux@page{155}{67}
\abx@aux@page{156}{67}
\abx@aux@page{157}{68}
\abx@aux@page{158}{68}
\abx@aux@page{159}{68}
\abx@aux@page{160}{68}
\abx@aux@page{161}{68}
\abx@aux@page{162}{68}
\abx@aux@page{163}{68}
\abx@aux@page{164}{68}
\abx@aux@page{165}{68}
\abx@aux@page{166}{69}
\abx@aux@page{167}{69}
\abx@aux@page{168}{69}
\abx@aux@page{169}{69}
\abx@aux@page{170}{69}
\abx@aux@page{171}{69}
\abx@aux@page{172}{69}
\abx@aux@page{173}{69}
\abx@aux@page{174}{70}
\abx@aux@page{175}{70}
\abx@aux@page{176}{70}
\abx@aux@page{177}{70}
\abx@aux@page{178}{70}
\abx@aux@page{179}{70}
\abx@aux@page{180}{70}
\abx@aux@page{181}{71}
\abx@aux@page{182}{71}
\abx@aux@page{183}{71}
\abx@aux@page{184}{71}
\abx@aux@page{185}{71}
\abx@aux@page{186}{71}
\@writefile{toc}{\contentsline {chapter}{Bibliography}{71}{chapter*.35}\protected@file@percent }
\@writefile{toc}{\contentsline {chapter}{Appendix}{71}{chapter*.35}\protected@file@percent }
\@writefile{toc}{\contentsline {chapter}{\numberline {A}Additional Material}{75}{appendix.A}\protected@file@percent }
\@writefile{lof}{\addvspace {10\p@ }}
\@writefile{lot}{\addvspace {10\p@ }}
\newlabel{additional_material}{{A}{75}{Additional Material}{appendix.A}{}}
\@writefile{lot}{\contentsline {table}{\numberline {A.1}{\ignorespaces Overview of entity types of the English spaCy model\relax }}{75}{table.caption.39}\protected@file@percent }
\newlabel{tab:spacy_ents_def}{{A.1}{75}{Overview of entity types of the English spaCy model\relax }{table.caption.39}{}}
\@writefile{lot}{\contentsline {table}{\numberline {A.2}{\ignorespaces Mapping of label schemas\relax }}{76}{table.caption.40}\protected@file@percent }
\newlabel{tab:label_mapping}{{A.2}{76}{Mapping of label schemas\relax }{table.caption.40}{}}
\citation{benikova-etal-2014-nosta}
\abx@aux@cite{0}{benikova-etal-2014-nosta}
\abx@aux@segm{0}{0}{benikova-etal-2014-nosta}
\citation{ldc_2005}
\abx@aux@cite{0}{ldc_2005}
\abx@aux@segm{0}{0}{ldc_2005}
\citation{muc7_ner}
\abx@aux@cite{0}{muc7_ner}
\abx@aux@segm{0}{0}{muc7_ner}
\citation{smartdata_anno}
\abx@aux@cite{0}{smartdata_anno}
\abx@aux@segm{0}{0}{smartdata_anno}
\newlabel{cha:annotation_guide}{{A}{77}{Annotation Guidelines}{appendix*.41}{}}
\abx@aux@page{191}{77}
\abx@aux@page{192}{77}
\abx@aux@page{193}{77}
\abx@aux@page{194}{77}
\@writefile{lot}{\contentsline {table}{\numberline {A.3}{\ignorespaces Definition of entity types for annotation guide\relax }}{79}{table.caption.44}\protected@file@percent }
\newlabel{tab:entity_types}{{A.3}{79}{Definition of entity types for annotation guide\relax }{table.caption.44}{}}
\abx@aux@read@bbl@mdfivesum{BE63E0134A9F5F9F1EF022C7BEF6E407}
\abx@aux@defaultrefcontext{0}{aggarwal_machine_2018}{nyt/global//global/global}
\abx@aux@defaultrefcontext{0}{akbik2018coling}{nyt/global//global/global}
\abx@aux@defaultrefcontext{0}{flair_ner}{nyt/global//global/global}
\abx@aux@defaultrefcontext{0}{flair_ner_german_standard_model}{nyt/global//global/global}
\abx@aux@defaultrefcontext{0}{akbik2019flair}{nyt/global//global/global}
\abx@aux@defaultrefcontext{0}{baldwin_shared_2015}{nyt/global//global/global}
\abx@aux@defaultrefcontext{0}{xlm_roberta_twitter}{nyt/global//global/global}
\abx@aux@defaultrefcontext{0}{benikova-etal-2014-nosta}{nyt/global//global/global}
\abx@aux@defaultrefcontext{0}{benikova2014germeval}{nyt/global//global/global}
\abx@aux@defaultrefcontext{0}{bhoi_2017}{nyt/global//global/global}
\abx@aux@defaultrefcontext{0}{bmr_2020}{nyt/global//global/global}
\abx@aux@defaultrefcontext{0}{cemas_2022}{nyt/global//global/global}
\abx@aux@defaultrefcontext{0}{bert_german_2020}{nyt/global//global/global}
\abx@aux@defaultrefcontext{0}{muc7_ner}{nyt/global//global/global}
\abx@aux@defaultrefcontext{0}{xlm_roberta}{nyt/global//global/global}
\abx@aux@defaultrefcontext{0}{derczynski-etal-2016-broad}{nyt/global//global/global}
\abx@aux@defaultrefcontext{0}{derczynski_analysis_2015}{nyt/global//global/global}
\abx@aux@defaultrefcontext{0}{derczynski_results_2017}{nyt/global//global/global}
\abx@aux@defaultrefcontext{0}{devlin_2018}{nyt/global//global/global}
\abx@aux@defaultrefcontext{0}{spacy_entity_recognizer}{nyt/global//global/global}
\abx@aux@defaultrefcontext{0}{spacy_facts}{nyt/global//global/global}
\abx@aux@defaultrefcontext{0}{spacy_german_md}{nyt/global//global/global}
\abx@aux@defaultrefcontext{0}{spacy_transition_based_parser}{nyt/global//global/global}
\abx@aux@defaultrefcontext{0}{fgz_2020}{nyt/global//global/global}
\abx@aux@defaultrefcontext{0}{fns_study}{nyt/global//global/global}
\abx@aux@defaultrefcontext{0}{grishman_message_1996}{nyt/global//global/global}
\abx@aux@defaultrefcontext{0}{huggingface_attention_mask}{nyt/global//global/global}
\abx@aux@defaultrefcontext{0}{huggingface_token_type_ids}{nyt/global//global/global}
\abx@aux@defaultrefcontext{0}{huggingface_tokenizers}{nyt/global//global/global}
\abx@aux@defaultrefcontext{0}{jurafsky_2021}{nyt/global//global/global}
\abx@aux@defaultrefcontext{0}{klaus_zdf}{nyt/global//global/global}
\abx@aux@defaultrefcontext{0}{ldc_2005}{nyt/global//global/global}
\abx@aux@defaultrefcontext{0}{magueresse_low-resource_2020}{nyt/global//global/global}
\abx@aux@defaultrefcontext{0}{nothman_learning_2013}{nyt/global//global/global}
\abx@aux@defaultrefcontext{0}{pennington2014glove}{nyt/global//global/global}
\abx@aux@defaultrefcontext{0}{ontonotes5}{nyt/global//global/global}
\abx@aux@defaultrefcontext{0}{ramshaw-marcus-1995-text}{nyt/global//global/global}
\abx@aux@defaultrefcontext{0}{rbb_reichstag}{nyt/global//global/global}
\abx@aux@defaultrefcontext{0}{ritter_2011}{nyt/global//global/global}
\abx@aux@defaultrefcontext{0}{bloomberg}{nyt/global//global/global}
\abx@aux@defaultrefcontext{0}{schiersch_2018}{nyt/global//global/global}
\abx@aux@defaultrefcontext{0}{schweter2020flert}{nyt/global//global/global}
\abx@aux@defaultrefcontext{0}{smartdata_anno}{nyt/global//global/global}
\abx@aux@defaultrefcontext{0}{shahsavari_conspiracy_2020}{nyt/global//global/global}
\abx@aux@defaultrefcontext{0}{singh_natural_2008}{nyt/global//global/global}
\abx@aux@defaultrefcontext{0}{strauss_results_2016}{nyt/global//global/global}
\abx@aux@defaultrefcontext{0}{tangherlini_automated_2020}{nyt/global//global/global}
\abx@aux@defaultrefcontext{0}{tjong_kim_sang_introduction_2003}{nyt/global//global/global}
\abx@aux@defaultrefcontext{0}{tunstall_natural_2022}{nyt/global//global/global}
\abx@aux@defaultrefcontext{0}{vajjala_practical_2020}{nyt/global//global/global}
\abx@aux@defaultrefcontext{0}{vaswani_2017}{nyt/global//global/global}
\abx@aux@defaultrefcontext{0}{teledash_2022}{nyt/global//global/global}
\abx@aux@defaultrefcontext{0}{yadav_survey_2019}{nyt/global//global/global}
\abx@aux@defaultrefcontext{0}{zong_information_2021}{nyt/global//global/global}
\abx@aux@defaultlabelprefix{0}{aggarwal_machine_2018}{}
\abx@aux@defaultlabelprefix{0}{akbik2018coling}{}
\abx@aux@defaultlabelprefix{0}{flair_ner}{}
\abx@aux@defaultlabelprefix{0}{flair_ner_german_standard_model}{}
\abx@aux@defaultlabelprefix{0}{akbik2019flair}{}
\abx@aux@defaultlabelprefix{0}{baldwin_shared_2015}{}
\abx@aux@defaultlabelprefix{0}{xlm_roberta_twitter}{}
\abx@aux@defaultlabelprefix{0}{benikova-etal-2014-nosta}{}
\abx@aux@defaultlabelprefix{0}{benikova2014germeval}{}
\abx@aux@defaultlabelprefix{0}{bhoi_2017}{}
\abx@aux@defaultlabelprefix{0}{bmr_2020}{}
\abx@aux@defaultlabelprefix{0}{cemas_2022}{}
\abx@aux@defaultlabelprefix{0}{bert_german_2020}{}
\abx@aux@defaultlabelprefix{0}{muc7_ner}{}
\abx@aux@defaultlabelprefix{0}{xlm_roberta}{}
\abx@aux@defaultlabelprefix{0}{derczynski-etal-2016-broad}{}
\abx@aux@defaultlabelprefix{0}{derczynski_analysis_2015}{}
\abx@aux@defaultlabelprefix{0}{derczynski_results_2017}{}
\abx@aux@defaultlabelprefix{0}{devlin_2018}{}
\abx@aux@defaultlabelprefix{0}{spacy_entity_recognizer}{}
\abx@aux@defaultlabelprefix{0}{spacy_facts}{}
\abx@aux@defaultlabelprefix{0}{spacy_german_md}{}
\abx@aux@defaultlabelprefix{0}{spacy_transition_based_parser}{}
\abx@aux@defaultlabelprefix{0}{fgz_2020}{}
\abx@aux@defaultlabelprefix{0}{fns_study}{}
\abx@aux@defaultlabelprefix{0}{grishman_message_1996}{}
\abx@aux@defaultlabelprefix{0}{huggingface_attention_mask}{}
\abx@aux@defaultlabelprefix{0}{huggingface_token_type_ids}{}
\abx@aux@defaultlabelprefix{0}{huggingface_tokenizers}{}
\abx@aux@defaultlabelprefix{0}{jurafsky_2021}{}
\abx@aux@defaultlabelprefix{0}{klaus_zdf}{}
\abx@aux@defaultlabelprefix{0}{ldc_2005}{}
\abx@aux@defaultlabelprefix{0}{magueresse_low-resource_2020}{}
\abx@aux@defaultlabelprefix{0}{nothman_learning_2013}{}
\abx@aux@defaultlabelprefix{0}{pennington2014glove}{}
\abx@aux@defaultlabelprefix{0}{ontonotes5}{}
\abx@aux@defaultlabelprefix{0}{ramshaw-marcus-1995-text}{}
\abx@aux@defaultlabelprefix{0}{rbb_reichstag}{}
\abx@aux@defaultlabelprefix{0}{ritter_2011}{}
\abx@aux@defaultlabelprefix{0}{bloomberg}{}
\abx@aux@defaultlabelprefix{0}{schiersch_2018}{}
\abx@aux@defaultlabelprefix{0}{schweter2020flert}{}
\abx@aux@defaultlabelprefix{0}{smartdata_anno}{}
\abx@aux@defaultlabelprefix{0}{shahsavari_conspiracy_2020}{}
\abx@aux@defaultlabelprefix{0}{singh_natural_2008}{}
\abx@aux@defaultlabelprefix{0}{strauss_results_2016}{}
\abx@aux@defaultlabelprefix{0}{tangherlini_automated_2020}{}
\abx@aux@defaultlabelprefix{0}{tjong_kim_sang_introduction_2003}{}
\abx@aux@defaultlabelprefix{0}{tunstall_natural_2022}{}
\abx@aux@defaultlabelprefix{0}{vajjala_practical_2020}{}
\abx@aux@defaultlabelprefix{0}{vaswani_2017}{}
\abx@aux@defaultlabelprefix{0}{teledash_2022}{}
\abx@aux@defaultlabelprefix{0}{yadav_survey_2019}{}
\abx@aux@defaultlabelprefix{0}{zong_information_2021}{}
\gdef \@abspage@last{91}
